<?xml version="1.0" encoding="UTF-8"?>
<!DOCTYPE X3D PUBLIC "ISO//Web3D//DTD X3D 3.0//EN" "http://www.web3d.org/specifications/x3d-3.0.dtd">
<X3D xmlns:xsd='http://www.w3.org/2001/XMLSchema-instance' profile='Full' version='3.0' xsd:noNamespaceSchemaLocation='http://www.web3d.org/specifications/x3d-3.0.xsd'>
  <Scene DEF='scene'>
    <WorldInfo info='"Author: Ondrej Pluhar"' title='AirPump'/>
    <LOD range='4 15'>
      <Group>
        <Group DEF='zaklad'>
          <Transform DEF='vyveva_vrchni_cast' rotation='0.281 -0.679 0.679 -3.69' translation='0.443 0.974 -0.311'>
            <Shape>
              <Appearance DEF='metalAP'>
                <Material ambientIntensity='0.25' diffuseColor='0.61 0.61 0.61' shininess='0.11' specularColor='0.39 0.39 0.39'/>
              </Appearance>
              <IndexedFaceSet creaseAngle='1' coordIndex='0 1 19 -1 19 18 0 -1 1 2 20 -1 20 19 1 -1 2 3 21 -1 21 20 2 -1 3 4 22 -1 22 21 3 -1 4 5 23 -1 23 22 4 -1 5 6 24 -1 24 23 5 -1 6 7 25 -1 25 24 6 -1 7 8 26 -1 26 25 7 -1 8 9 27 -1 27 26 8 -1 9 10 28 -1 28 27 9 -1 10 11 29 -1 29 28 10 -1 11 12 30 -1 30 29 11 -1 12 13 31 -1 31 30 12 -1 13 14 32 -1 32 31 13 -1 14 15 33 -1 33 32 14 -1 15 16 34 -1 34 33 15 -1 16 17 35 -1 35 34 16 -1 17 0 18 -1 18 35 17 -1 16 15 14 -1 14 13 12 -1 12 11 10 -1 14 12 10 -1 10 9 8 -1 8 7 6 -1 10 8 6 -1 6 5 4 -1 4 3 2 -1 6 4 2 -1 10 6 2 -1 14 10 2 -1 2 1 0 -1 14 2 0 -1 16 14 0 -1 17 16 0 -1 163 164 165 -1 165 166 167 -1 167 168 169 -1 165 167 169 -1 169 170 171 -1 171 172 173 -1 169 171 173 -1 173 174 175 -1 175 176 177 -1 173 175 177 -1 169 173 177 -1 165 169 177 -1 177 178 179 -1 165 177 179 -1 163 165 179 -1 162 163 179 -1 18 19 37 -1 37 36 18 -1 19 20 38 -1 38 37 19 -1 20 21 39 -1 39 38 20 -1 21 22 40 -1 40 39 21 -1 22 23 41 -1 41 40 22 -1 23 24 42 -1 42 41 23 -1 24 25 43 -1 43 42 24 -1 25 26 44 -1 44 43 25 -1 26 27 45 -1 45 44 26 -1 27 28 46 -1 46 45 27 -1 28 29 47 -1 47 46 28 -1 29 30 48 -1 48 47 29 -1 30 31 49 -1 49 48 30 -1 31 32 50 -1 50 49 31 -1 32 33 51 -1 51 50 32 -1 33 34 52 -1 52 51 33 -1 34 35 53 -1 53 52 34 -1 35 18 36 -1 36 53 35 -1 36 37 55 -1 55 54 36 -1 37 38 56 -1 56 55 37 -1 38 39 57 -1 57 56 38 -1 39 40 58 -1 58 57 39 -1 40 41 59 -1 59 58 40 -1 41 42 60 -1 60 59 41 -1 42 43 61 -1 61 60 42 -1 43 44 62 -1 62 61 43 -1 44 45 63 -1 63 62 44 -1 45 46 64 -1 64 63 45 -1 46 47 65 -1 65 64 46 -1 47 48 66 -1 66 65 47 -1 48 49 67 -1 67 66 48 -1 49 50 68 -1 68 67 49 -1 50 51 69 -1 69 68 50 -1 51 52 70 -1 70 69 51 -1 52 53 71 -1 71 70 52 -1 53 36 54 -1 54 71 53 -1 54 55 73 -1 73 72 54 -1 55 56 74 -1 74 73 55 -1 56 57 75 -1 75 74 56 -1 57 58 76 -1 76 75 57 -1 58 59 77 -1 77 76 58 -1 59 60 78 -1 78 77 59 -1 60 61 79 -1 79 78 60 -1 61 62 80 -1 80 79 61 -1 62 63 81 -1 81 80 62 -1 63 64 82 -1 82 81 63 -1 64 65 83 -1 83 82 64 -1 65 66 84 -1 84 83 65 -1 66 67 85 -1 85 84 66 -1 67 68 86 -1 86 85 67 -1 68 69 87 -1 87 86 68 -1 69 70 88 -1 88 87 69 -1 70 71 89 -1 89 88 70 -1 71 54 72 -1 72 89 71 -1 72 73 91 -1 91 90 72 -1 73 74 92 -1 92 91 73 -1 74 75 93 -1 93 92 74 -1 75 76 94 -1 94 93 75 -1 76 77 95 -1 95 94 76 -1 77 78 96 -1 96 95 77 -1 78 79 97 -1 97 96 78 -1 79 80 98 -1 98 97 79 -1 80 81 99 -1 99 98 80 -1 81 82 100 -1 100 99 81 -1 82 83 101 -1 101 100 82 -1 83 84 102 -1 102 101 83 -1 84 85 103 -1 103 102 84 -1 85 86 104 -1 104 103 85 -1 86 87 105 -1 105 104 86 -1 87 88 106 -1 106 105 87 -1 88 89 107 -1 107 106 88 -1 89 72 90 -1 90 107 89 -1 90 91 109 -1 109 108 90 -1 91 92 110 -1 110 109 91 -1 92 93 111 -1 111 110 92 -1 93 94 112 -1 112 111 93 -1 94 95 113 -1 113 112 94 -1 95 96 114 -1 114 113 95 -1 96 97 115 -1 115 114 96 -1 97 98 116 -1 116 115 97 -1 98 99 117 -1 117 116 98 -1 99 100 118 -1 118 117 99 -1 100 101 119 -1 119 118 100 -1 101 102 120 -1 120 119 101 -1 102 103 121 -1 121 120 102 -1 103 104 122 -1 122 121 103 -1 104 105 123 -1 123 122 104 -1 105 106 124 -1 124 123 105 -1 106 107 125 -1 125 124 106 -1 107 90 108 -1 108 125 107 -1 108 109 127 -1 127 126 108 -1 109 110 128 -1 128 127 109 -1 110 111 129 -1 129 128 110 -1 111 112 130 -1 130 129 111 -1 112 113 131 -1 131 130 112 -1 113 114 132 -1 132 131 113 -1 114 115 133 -1 133 132 114 -1 115 116 134 -1 134 133 115 -1 116 117 135 -1 135 134 116 -1 117 118 136 -1 136 135 117 -1 118 119 137 -1 137 136 118 -1 119 120 138 -1 138 137 119 -1 120 121 139 -1 139 138 120 -1 121 122 140 -1 140 139 121 -1 122 123 141 -1 141 140 122 -1 123 124 142 -1 142 141 123 -1 124 125 143 -1 143 142 124 -1 125 108 126 -1 126 143 125 -1 126 127 145 -1 145 144 126 -1 127 128 146 -1 146 145 127 -1 128 129 147 -1 147 146 128 -1 129 130 148 -1 148 147 129 -1 130 131 149 -1 149 148 130 -1 131 132 150 -1 150 149 131 -1 132 133 151 -1 151 150 132 -1 133 134 152 -1 152 151 133 -1 134 135 153 -1 153 152 134 -1 135 136 154 -1 154 153 135 -1 136 137 155 -1 155 154 136 -1 137 138 156 -1 156 155 137 -1 138 139 157 -1 157 156 138 -1 139 140 158 -1 158 157 139 -1 140 141 159 -1 159 158 140 -1 141 142 160 -1 160 159 141 -1 142 143 161 -1 161 160 142 -1 143 126 144 -1 144 161 143 -1 144 145 163 -1 163 162 144 -1 145 146 164 -1 164 163 145 -1 146 147 165 -1 165 164 146 -1 147 148 166 -1 166 165 147 -1 148 149 167 -1 167 166 148 -1 149 150 168 -1 168 167 149 -1 150 151 169 -1 169 168 150 -1 151 152 170 -1 170 169 151 -1 152 153 171 -1 171 170 152 -1 153 154 172 -1 172 171 153 -1 154 155 173 -1 173 172 154 -1 155 156 174 -1 174 173 155 -1 156 157 175 -1 175 174 156 -1 157 158 176 -1 176 175 157 -1 158 159 177 -1 177 176 158 -1 159 160 178 -1 178 177 159 -1 160 161 179 -1 179 178 160 -1 161 144 162 -1 162 179 161 -1'>
                <Coordinate point='0.1 0 0 0.094 0 -0.0342 0.0766 0 -0.0643 0.05 0 -0.0866 0.0174 0 -0.0985 -0.0174 0 -0.0985 -0.05 0 -0.0866 -0.0766 0 -0.0643 -0.094 0 -0.0342 -0.1 0 0 -0.094 0 0.0342 -0.0766 0 0.0643 -0.05 0 0.0866 -0.0174 0 0.0985 0.0174 0 0.0985 0.05 0 0.0866 0.0766 0 0.0643 0.094 0 0.0342 0.1 0.015 0 0.094 0.015 -0.0342 0.0766 0.015 -0.0643 0.05 0.015 -0.0866 0.0174 0.015 -0.0985 -0.0174 0.015 -0.0985 -0.05 0.015 -0.0866 -0.0766 0.015 -0.0643 -0.094 0.015 -0.0342 -0.1 0.015 0 -0.094 0.015 0.0342 -0.0766 0.015 0.0643 -0.05 0.015 0.0866 -0.0174 0.015 0.0985 0.0174 0.015 0.0985 0.05 0.015 0.0866 0.0766 0.015 0.0643 0.094 0.015 0.0342 0.0797 0.015 0 0.0749 0.015 -0.0273 0.061 0.015 -0.0512 0.0398 0.015 -0.069 0.0138 0.015 -0.0785 -0.0138 0.015 -0.0785 -0.0398 0.015 -0.069 -0.061 0.015 -0.0512 -0.0749 0.015 -0.0273 -0.0797 0.015 0 -0.0749 0.015 0.0273 -0.061 0.015 0.0512 -0.0398 0.015 0.069 -0.0138 0.015 0.0785 0.0138 0.015 0.0785 0.0398 0.015 0.069 0.061 0.015 0.0512 0.0749 0.015 0.0273 0.0797 0.215 0 0.0749 0.215 -0.0273 0.061 0.215 -0.0512 0.0398 0.215 -0.069 0.0138 0.215 -0.0785 -0.0138 0.215 -0.0785 -0.0398 0.215 -0.069 -0.061 0.215 -0.0512 -0.0749 0.215 -0.0273 -0.0797 0.215 0 -0.0749 0.215 0.0273 -0.061 0.215 0.0512 -0.0398 0.215 0.069 -0.0138 0.215 0.0785 0.0138 0.215 0.0785 0.0398 0.215 0.069 0.061 0.215 0.0512 0.0749 0.215 0.0273 0.1 0.215 0 0.094 0.215 -0.0342 0.0766 0.215 -0.0643 0.05 0.215 -0.0866 0.0174 0.215 -0.0985 -0.0174 0.215 -0.0985 -0.05 0.215 -0.0866 -0.0766 0.215 -0.0643 -0.094 0.215 -0.0342 -0.1 0.215 0 -0.094 0.215 0.0342 -0.0766 0.215 0.0643 -0.05 0.215 0.0866 -0.0174 0.215 0.0985 0.0174 0.215 0.0985 0.05 0.215 0.0866 0.0766 0.215 0.0643 0.094 0.215 0.0342 0.1 0.23 0 0.094 0.23 -0.0342 0.0766 0.23 -0.0643 0.05 0.23 -0.0866 0.0174 0.23 -0.0985 -0.0174 0.23 -0.0985 -0.05 0.23 -0.0866 -0.0766 0.23 -0.0643 -0.094 0.23 -0.0342 -0.1 0.23 0 -0.094 0.23 0.0342 -0.0766 0.23 0.0643 -0.05 0.23 0.0866 -0.0174 0.23 0.0985 0.0174 0.23 0.0985 0.05 0.23 0.0866 0.0766 0.23 0.0643 0.094 0.23 0.0342 0.098 0.23 0 0.0921 0.23 -0.0335 0.075 0.23 -0.063 0.049 0.23 -0.0848 0.017 0.23 -0.0965 -0.017 0.23 -0.0965 -0.049 0.23 -0.0848 -0.075 0.23 -0.063 -0.0921 0.23 -0.0335 -0.098 0.23 0 -0.0921 0.23 0.0335 -0.075 0.23 0.063 -0.049 0.23 0.0848 -0.017 0.23 0.0965 0.017 0.23 0.0965 0.049 0.23 0.0848 0.075 0.23 0.063 0.0921 0.23 0.0335 0.098 0.245 0 0.0921 0.245 -0.0335 0.075 0.245 -0.063 0.049 0.245 -0.0848 0.017 0.245 -0.0965 -0.017 0.245 -0.0965 -0.049 0.245 -0.0848 -0.075 0.245 -0.063 -0.0921 0.245 -0.0335 -0.098 0.245 0 -0.0921 0.245 0.0335 -0.075 0.245 0.063 -0.049 0.245 0.0848 -0.017 0.245 0.0965 0.017 0.245 0.0965 0.049 0.245 0.0848 0.075 0.245 0.063 0.0921 0.245 0.0335 0.037 0.245 0 0.0348 0.245 -0.0127 0.0284 0.245 -0.0238 0.0185 0.245 -0.0321 0.00643 0.245 -0.0365 -0.00643 0.245 -0.0365 -0.0185 0.245 -0.0321 -0.0284 0.245 -0.0238 -0.0348 0.245 -0.0127 -0.037 0.245 0 -0.0348 0.245 0.0127 -0.0284 0.245 0.0238 -0.0185 0.245 0.0321 -0.00643 0.245 0.0365 0.00643 0.245 0.0365 0.0185 0.245 0.0321 0.0284 0.245 0.0238 0.0348 0.245 0.0127 0.037 0.26 0 0.0348 0.26 -0.0127 0.0284 0.26 -0.0238 0.0185 0.26 -0.0321 0.00643 0.26 -0.0365 -0.00643 0.26 -0.0365 -0.0185 0.26 -0.0321 -0.0284 0.26 -0.0238 -0.0348 0.26 -0.0127 -0.037 0.26 0 -0.0348 0.26 0.0127 -0.0284 0.26 0.0238 -0.0185 0.26 0.0321 -0.00643 0.26 0.0365 0.00643 0.26 0.0365 0.0185 0.26 0.0321 0.0284 0.26 0.0238 0.0348 0.26 0.0127'/>
              </IndexedFaceSet>
            </Shape>
          </Transform>
          <Transform DEF='vyveva_sv_cast' translation='0.357 0.853 -0.397'>
            <Shape>
              <Appearance USE='metalAP'/>
              <IndexedFaceSet DEF='vyveva_sv_cast-FACES' creaseAngle='0.4' coordIndex='0 1 19 -1 19 18 0 -1 1 2 20 -1 20 19 1 -1 2 3 21 -1 21 20 2 -1 3 4 22 -1 22 21 3 -1 4 5 23 -1 23 22 4 -1 5 6 24 -1 24 23 5 -1 6 7 25 -1 25 24 6 -1 7 8 26 -1 26 25 7 -1 8 9 27 -1 27 26 8 -1 9 10 28 -1 28 27 9 -1 10 11 29 -1 29 28 10 -1 11 12 30 -1 30 29 11 -1 12 13 31 -1 31 30 12 -1 13 14 32 -1 32 31 13 -1 14 15 33 -1 33 32 14 -1 15 16 34 -1 34 33 15 -1 16 17 35 -1 35 34 16 -1 17 0 18 -1 18 35 17 -1 417 418 419 -1 419 420 421 -1 421 422 423 -1 419 421 423 -1 423 424 425 -1 425 426 427 -1 423 425 427 -1 427 428 429 -1 429 430 431 -1 427 429 431 -1 423 427 431 -1 419 423 431 -1 431 414 415 -1 419 431 415 -1 417 419 415 -1 416 417 415 -1 91 92 93 -1 93 94 95 -1 95 96 97 -1 93 95 97 -1 97 98 99 -1 99 100 101 -1 97 99 101 -1 101 102 103 -1 103 104 105 -1 101 103 105 -1 97 101 105 -1 93 97 105 -1 105 106 107 -1 93 105 107 -1 91 93 107 -1 90 91 107 -1 18 19 37 -1 37 36 18 -1 19 20 38 -1 38 37 19 -1 20 21 39 -1 39 38 20 -1 21 22 40 -1 40 39 21 -1 22 23 41 -1 41 40 22 -1 23 24 42 -1 42 41 23 -1 24 25 43 -1 43 42 24 -1 25 26 44 -1 44 43 25 -1 26 27 45 -1 45 44 26 -1 27 28 46 -1 46 45 27 -1 28 29 47 -1 47 46 28 -1 29 30 48 -1 48 47 29 -1 30 31 49 -1 49 48 30 -1 31 32 50 -1 50 49 31 -1 32 33 51 -1 51 50 32 -1 33 34 52 -1 52 51 33 -1 34 35 53 -1 53 52 34 -1 35 18 36 -1 36 53 35 -1 36 37 55 -1 55 54 36 -1 37 38 56 -1 56 55 37 -1 38 39 57 -1 57 56 38 -1 39 40 58 -1 58 57 39 -1 40 41 59 -1 59 58 40 -1 41 42 60 -1 60 59 41 -1 42 43 61 -1 61 60 42 -1 43 44 62 -1 62 61 43 -1 44 45 63 -1 63 62 44 -1 45 46 64 -1 64 63 45 -1 46 47 65 -1 65 64 46 -1 47 48 66 -1 66 65 47 -1 48 49 67 -1 67 66 48 -1 49 50 68 -1 68 67 49 -1 50 51 69 -1 69 68 50 -1 51 52 70 -1 70 69 51 -1 52 53 71 -1 71 70 52 -1 53 36 54 -1 54 71 53 -1 54 55 73 -1 73 72 54 -1 55 56 74 -1 74 73 55 -1 56 57 75 -1 75 74 56 -1 57 58 76 -1 76 75 57 -1 58 59 77 -1 77 76 58 -1 59 60 78 -1 78 77 59 -1 60 61 79 -1 79 78 60 -1 61 62 80 -1 80 79 61 -1 62 63 81 -1 81 80 62 -1 63 64 82 -1 82 81 63 -1 64 65 83 -1 83 82 64 -1 65 66 84 -1 84 83 65 -1 66 67 85 -1 85 84 66 -1 67 68 86 -1 86 85 67 -1 68 69 87 -1 87 86 68 -1 69 70 88 -1 88 87 69 -1 70 71 89 -1 89 88 70 -1 71 54 72 -1 72 89 71 -1 72 73 91 -1 91 90 72 -1 73 74 92 -1 92 91 73 -1 74 75 93 -1 93 92 74 -1 75 76 94 -1 94 93 75 -1 76 77 95 -1 95 94 76 -1 77 78 96 -1 96 95 77 -1 78 79 97 -1 97 96 78 -1 79 80 98 -1 98 97 79 -1 80 81 99 -1 99 98 80 -1 81 82 100 -1 100 99 81 -1 82 83 101 -1 101 100 82 -1 83 84 102 -1 102 101 83 -1 84 85 103 -1 103 102 84 -1 85 86 104 -1 104 103 85 -1 86 87 105 -1 105 104 86 -1 87 88 106 -1 106 105 87 -1 88 89 107 -1 107 106 88 -1 89 72 90 -1 90 107 89 -1 1 0 109 -1 109 108 1 -1 0 17 110 -1 110 109 0 -1 17 16 111 -1 111 110 17 -1 16 15 112 -1 112 111 16 -1 15 14 113 -1 113 112 15 -1 14 13 114 -1 114 113 14 -1 13 12 115 -1 115 114 13 -1 12 11 116 -1 116 115 12 -1 11 10 117 -1 117 116 11 -1 10 9 118 -1 118 117 10 -1 9 8 119 -1 119 118 9 -1 8 7 120 -1 120 119 8 -1 7 6 121 -1 121 120 7 -1 6 5 122 -1 122 121 6 -1 5 4 123 -1 123 122 5 -1 4 3 124 -1 124 123 4 -1 3 2 125 -1 125 124 3 -1 2 1 108 -1 108 125 2 -1 108 109 127 -1 127 126 108 -1 109 110 128 -1 128 127 109 -1 110 111 129 -1 129 128 110 -1 111 112 130 -1 130 129 111 -1 112 113 131 -1 131 130 112 -1 113 114 132 -1 132 131 113 -1 114 115 133 -1 133 132 114 -1 115 116 134 -1 134 133 115 -1 116 117 135 -1 135 134 116 -1 117 118 136 -1 136 135 117 -1 118 119 137 -1 137 136 118 -1 119 120 138 -1 138 137 119 -1 120 121 139 -1 139 138 120 -1 121 122 140 -1 140 139 121 -1 122 123 141 -1 141 140 122 -1 123 124 142 -1 142 141 123 -1 124 125 143 -1 143 142 124 -1 125 108 126 -1 126 143 125 -1 126 127 145 -1 145 144 126 -1 127 128 146 -1 146 145 127 -1 128 129 147 -1 147 146 128 -1 129 130 148 -1 148 147 129 -1 130 131 149 -1 149 148 130 -1 131 132 150 -1 150 149 131 -1 132 133 151 -1 151 150 132 -1 133 134 152 -1 152 151 133 -1 134 135 153 -1 153 152 134 -1 135 136 154 -1 154 153 135 -1 136 137 155 -1 155 154 136 -1 137 138 156 -1 156 155 137 -1 138 139 157 -1 157 156 138 -1 139 140 158 -1 158 157 139 -1 140 141 159 -1 159 158 140 -1 141 142 160 -1 160 159 141 -1 142 143 161 -1 161 160 142 -1 143 126 144 -1 144 161 143 -1 144 145 163 -1 163 162 144 -1 145 146 164 -1 164 163 145 -1 146 147 165 -1 165 164 146 -1 147 148 166 -1 166 165 147 -1 148 149 167 -1 167 166 148 -1 149 150 168 -1 168 167 149 -1 150 151 169 -1 169 168 150 -1 151 152 170 -1 170 169 151 -1 152 153 171 -1 171 170 152 -1 153 154 172 -1 172 171 153 -1 154 155 173 -1 173 172 154 -1 155 156 174 -1 174 173 155 -1 156 157 175 -1 175 174 156 -1 157 158 176 -1 176 175 157 -1 158 159 177 -1 177 176 158 -1 159 160 178 -1 178 177 159 -1 160 161 179 -1 179 178 160 -1 161 144 162 -1 162 179 161 -1 162 163 181 -1 181 180 162 -1 163 164 182 -1 182 181 163 -1 164 165 183 -1 183 182 164 -1 165 166 184 -1 184 183 165 -1 166 167 185 -1 185 184 166 -1 167 168 186 -1 186 185 167 -1 168 169 187 -1 187 186 168 -1 169 170 188 -1 188 187 169 -1 170 171 189 -1 189 188 170 -1 171 172 190 -1 190 189 171 -1 172 173 191 -1 191 190 172 -1 173 174 192 -1 192 191 173 -1 174 175 193 -1 193 192 174 -1 175 176 194 -1 194 193 175 -1 176 177 195 -1 195 194 176 -1 177 178 196 -1 196 195 177 -1 178 179 197 -1 197 196 178 -1 179 162 180 -1 180 197 179 -1 180 181 199 -1 199 198 180 -1 181 182 200 -1 200 199 181 -1 182 183 201 -1 201 200 182 -1 183 184 202 -1 202 201 183 -1 184 185 203 -1 203 202 184 -1 185 186 204 -1 204 203 185 -1 186 187 205 -1 205 204 186 -1 187 188 206 -1 206 205 187 -1 188 189 207 -1 207 206 188 -1 189 190 208 -1 208 207 189 -1 190 191 209 -1 209 208 190 -1 191 192 210 -1 210 209 191 -1 192 193 211 -1 211 210 192 -1 193 194 212 -1 212 211 193 -1 194 195 213 -1 213 212 194 -1 195 196 214 -1 214 213 195 -1 196 197 215 -1 215 214 196 -1 197 180 198 -1 198 215 197 -1 198 199 217 -1 217 216 198 -1 199 200 218 -1 218 217 199 -1 200 201 219 -1 219 218 200 -1 201 202 220 -1 220 219 201 -1 202 203 221 -1 221 220 202 -1 203 204 222 -1 222 221 203 -1 204 205 223 -1 223 222 204 -1 205 206 224 -1 224 223 205 -1 206 207 225 -1 225 224 206 -1 207 208 226 -1 226 225 207 -1 208 209 227 -1 227 226 208 -1 209 210 228 -1 228 227 209 -1 210 211 229 -1 229 228 210 -1 211 212 230 -1 230 229 211 -1 212 213 231 -1 231 230 212 -1 213 214 232 -1 232 231 213 -1 214 215 233 -1 233 232 214 -1 215 198 216 -1 216 233 215 -1 216 217 235 -1 235 234 216 -1 217 218 236 -1 236 235 217 -1 218 219 237 -1 237 236 218 -1 219 220 238 -1 238 237 219 -1 220 221 239 -1 239 238 220 -1 221 222 240 -1 240 239 221 -1 222 223 241 -1 241 240 222 -1 223 224 242 -1 242 241 223 -1 224 225 243 -1 243 242 224 -1 225 226 244 -1 244 243 225 -1 226 227 245 -1 245 244 226 -1 227 228 246 -1 246 245 227 -1 228 229 247 -1 247 246 228 -1 229 230 248 -1 248 247 229 -1 230 231 249 -1 249 248 230 -1 231 232 250 -1 250 249 231 -1 232 233 251 -1 251 250 232 -1 233 216 234 -1 234 251 233 -1 234 235 253 -1 253 252 234 -1 235 236 254 -1 254 253 235 -1 236 237 255 -1 255 254 236 -1 237 238 256 -1 256 255 237 -1 238 239 257 -1 257 256 238 -1 239 240 258 -1 258 257 239 -1 240 241 259 -1 259 258 240 -1 241 242 260 -1 260 259 241 -1 242 243 261 -1 261 260 242 -1 243 244 262 -1 262 261 243 -1 244 245 263 -1 263 262 244 -1 245 246 264 -1 264 263 245 -1 246 247 265 -1 265 264 246 -1 247 248 266 -1 266 265 247 -1 248 249 267 -1 267 266 248 -1 249 250 268 -1 268 267 249 -1 250 251 269 -1 269 268 250 -1 251 234 252 -1 252 269 251 -1 252 253 271 -1 271 270 252 -1 253 254 272 -1 272 271 253 -1 254 255 273 -1 273 272 254 -1 255 256 274 -1 274 273 255 -1 256 257 275 -1 275 274 256 -1 257 258 276 -1 276 275 257 -1 258 259 277 -1 277 276 258 -1 259 260 278 -1 278 277 259 -1 260 261 279 -1 279 278 260 -1 261 262 280 -1 280 279 261 -1 262 263 281 -1 281 280 262 -1 263 264 282 -1 282 281 263 -1 264 265 283 -1 283 282 264 -1 265 266 284 -1 284 283 265 -1 266 267 285 -1 285 284 266 -1 267 268 286 -1 286 285 267 -1 268 269 287 -1 287 286 268 -1 269 252 270 -1 270 287 269 -1 270 271 289 -1 289 288 270 -1 271 272 290 -1 290 289 271 -1 272 273 291 -1 291 290 272 -1 273 274 292 -1 292 291 273 -1 274 275 293 -1 293 292 274 -1 275 276 294 -1 294 293 275 -1 276 277 295 -1 295 294 276 -1 277 278 296 -1 296 295 277 -1 278 279 297 -1 297 296 278 -1 279 280 298 -1 298 297 279 -1 280 281 299 -1 299 298 280 -1 281 282 300 -1 300 299 281 -1 282 283 301 -1 301 300 282 -1 283 284 302 -1 302 301 283 -1 284 285 303 -1 303 302 284 -1 285 286 304 -1 304 303 285 -1 286 287 305 -1 305 304 286 -1 287 270 288 -1 288 305 287 -1 288 289 307 -1 307 306 288 -1 289 290 308 -1 308 307 289 -1 290 291 309 -1 309 308 290 -1 291 292 310 -1 310 309 291 -1 292 293 311 -1 311 310 292 -1 293 294 312 -1 312 311 293 -1 294 295 313 -1 313 312 294 -1 295 296 314 -1 314 313 295 -1 296 297 315 -1 315 314 296 -1 297 298 316 -1 316 315 297 -1 298 299 317 -1 317 316 298 -1 299 300 318 -1 318 317 299 -1 300 301 319 -1 319 318 300 -1 301 302 320 -1 320 319 301 -1 302 303 321 -1 321 320 302 -1 303 304 322 -1 322 321 303 -1 304 305 323 -1 323 322 304 -1 305 288 306 -1 306 323 305 -1 306 307 325 -1 325 324 306 -1 307 308 326 -1 326 325 307 -1 308 309 327 -1 327 326 308 -1 309 310 328 -1 328 327 309 -1 310 311 329 -1 329 328 310 -1 311 312 330 -1 330 329 311 -1 312 313 331 -1 331 330 312 -1 313 314 332 -1 332 331 313 -1 314 315 333 -1 333 332 314 -1 315 316 334 -1 334 333 315 -1 316 317 335 -1 335 334 316 -1 317 318 336 -1 336 335 317 -1 318 319 337 -1 337 336 318 -1 319 320 338 -1 338 337 319 -1 320 321 339 -1 339 338 320 -1 321 322 340 -1 340 339 321 -1 322 323 341 -1 341 340 322 -1 323 306 324 -1 324 341 323 -1 324 325 343 -1 343 342 324 -1 325 326 344 -1 344 343 325 -1 326 327 345 -1 345 344 326 -1 327 328 346 -1 346 345 327 -1 328 329 347 -1 347 346 328 -1 329 330 348 -1 348 347 329 -1 330 331 349 -1 349 348 330 -1 331 332 350 -1 350 349 331 -1 332 333 351 -1 351 350 332 -1 333 334 352 -1 352 351 333 -1 334 335 353 -1 353 352 334 -1 335 336 354 -1 354 353 335 -1 336 337 355 -1 355 354 336 -1 337 338 356 -1 356 355 337 -1 338 339 357 -1 357 356 338 -1 339 340 358 -1 358 357 339 -1 340 341 359 -1 359 358 340 -1 341 324 342 -1 342 359 341 -1 342 343 361 -1 361 360 342 -1 343 344 362 -1 362 361 343 -1 344 345 363 -1 363 362 344 -1 345 346 364 -1 364 363 345 -1 346 347 365 -1 365 364 346 -1 347 348 366 -1 366 365 347 -1 348 349 367 -1 367 366 348 -1 349 350 368 -1 368 367 349 -1 350 351 369 -1 369 368 350 -1 351 352 370 -1 370 369 351 -1 352 353 371 -1 371 370 352 -1 353 354 372 -1 372 371 353 -1 354 355 373 -1 373 372 354 -1 355 356 374 -1 374 373 355 -1 356 357 375 -1 375 374 356 -1 357 358 376 -1 376 375 357 -1 358 359 377 -1 377 376 358 -1 359 342 360 -1 360 377 359 -1 360 361 379 -1 379 378 360 -1 361 362 380 -1 380 379 361 -1 362 363 381 -1 381 380 362 -1 363 364 382 -1 382 381 363 -1 364 365 383 -1 383 382 364 -1 365 366 384 -1 384 383 365 -1 366 367 385 -1 385 384 366 -1 367 368 386 -1 386 385 367 -1 368 369 387 -1 387 386 368 -1 369 370 388 -1 388 387 369 -1 370 371 389 -1 389 388 370 -1 371 372 390 -1 390 389 371 -1 372 373 391 -1 391 390 372 -1 373 374 392 -1 392 391 373 -1 374 375 393 -1 393 392 374 -1 375 376 394 -1 394 393 375 -1 376 377 395 -1 395 394 376 -1 377 360 378 -1 378 395 377 -1 378 379 397 -1 397 396 378 -1 379 380 398 -1 398 397 379 -1 380 381 399 -1 399 398 380 -1 381 382 400 -1 400 399 381 -1 382 383 401 -1 401 400 382 -1 383 384 402 -1 402 401 383 -1 384 385 403 -1 403 402 384 -1 385 386 404 -1 404 403 385 -1 386 387 405 -1 405 404 386 -1 387 388 406 -1 406 405 387 -1 388 389 407 -1 407 406 388 -1 389 390 408 -1 408 407 389 -1 390 391 409 -1 409 408 390 -1 391 392 410 -1 410 409 391 -1 392 393 411 -1 411 410 392 -1 393 394 412 -1 412 411 393 -1 394 395 413 -1 413 412 394 -1 395 378 396 -1 396 413 395 -1 396 397 415 -1 415 414 396 -1 397 398 416 -1 416 415 397 -1 398 399 417 -1 417 416 398 -1 399 400 418 -1 418 417 399 -1 400 401 419 -1 419 418 400 -1 401 402 420 -1 420 419 401 -1 402 403 421 -1 421 420 402 -1 403 404 422 -1 422 421 403 -1 404 405 423 -1 423 422 404 -1 405 406 424 -1 424 423 405 -1 406 407 425 -1 425 424 406 -1 407 408 426 -1 426 425 407 -1 408 409 427 -1 427 426 408 -1 409 410 428 -1 428 427 409 -1 410 411 429 -1 429 428 410 -1 411 412 430 -1 430 429 411 -1 412 413 431 -1 431 430 412 -1 413 396 414 -1 414 431 413 -1'>
                <Coordinate DEF='vyveva_sv_cast-COORD' point='0.06 0 0 0.0564 0 -0.0205 0.046 0 -0.0386 0.03 0 -0.052 0.0104 0 -0.0591 -0.0104 0 -0.0591 -0.03 0 -0.052 -0.046 0 -0.0386 -0.0564 0 -0.0205 -0.06 0 0 -0.0564 0 0.0205 -0.046 0 0.0386 -0.03 0 0.052 -0.0104 0 0.0591 0.0104 0 0.0591 0.03 0 0.052 0.046 0 0.0386 0.0564 0 0.0205 0.06 0.25 0 0.0564 0.25 -0.0205 0.046 0.25 -0.0386 0.03 0.25 -0.052 0.0104 0.25 -0.0591 -0.0104 0.25 -0.0591 -0.03 0.25 -0.052 -0.046 0.25 -0.0386 -0.0564 0.25 -0.0205 -0.06 0.25 0 -0.0564 0.25 0.0205 -0.046 0.25 0.0386 -0.03 0.25 0.052 -0.0104 0.25 0.0591 0.0104 0.25 0.0591 0.03 0.25 0.052 0.046 0.25 0.0386 0.0564 0.25 0.0205 0.0803 0.25 0 0.0755 0.25 -0.0275 0.0615 0.25 -0.0516 0.0402 0.25 -0.0695 0.0139 0.25 -0.0791 -0.0139 0.25 -0.0791 -0.0402 0.25 -0.0695 -0.0615 0.25 -0.0516 -0.0755 0.25 -0.0275 -0.0803 0.25 0 -0.0755 0.25 0.0275 -0.0615 0.25 0.0516 -0.0402 0.25 0.0695 -0.0139 0.25 0.0791 0.0139 0.25 0.0791 0.0402 0.25 0.0695 0.0615 0.25 0.0516 0.0755 0.25 0.0275 0.0803 0.265 0 0.0755 0.265 -0.0275 0.0615 0.265 -0.0516 0.0402 0.265 -0.0695 0.0139 0.265 -0.0791 -0.0139 0.265 -0.0791 -0.0402 0.265 -0.0695 -0.0615 0.265 -0.0516 -0.0755 0.265 -0.0275 -0.0803 0.265 0 -0.0755 0.265 0.0275 -0.0615 0.265 0.0516 -0.0402 0.265 0.0695 -0.0139 0.265 0.0791 0.0139 0.265 0.0791 0.0402 0.265 0.0695 0.0615 0.265 0.0516 0.0755 0.265 0.0275 0.0823 0.265 0 0.0774 0.265 -0.0282 0.0631 0.265 -0.0529 0.0412 0.265 -0.0713 0.0143 0.265 -0.0811 -0.0143 0.265 -0.0811 -0.0412 0.265 -0.0713 -0.0631 0.265 -0.0529 -0.0774 0.265 -0.0282 -0.0823 0.265 0 -0.0774 0.265 0.0282 -0.0631 0.265 0.0529 -0.0412 0.265 0.0713 -0.0143 0.265 0.0811 0.0143 0.265 0.0811 0.0412 0.265 0.0713 0.0631 0.265 0.0529 0.0774 0.265 0.0282 0.0823 0.28 0 0.0774 0.28 -0.0282 0.0631 0.28 -0.0529 0.0412 0.28 -0.0713 0.0143 0.28 -0.0811 -0.0143 0.28 -0.0811 -0.0412 0.28 -0.0713 -0.0631 0.28 -0.0529 -0.0774 0.28 -0.0282 -0.0823 0.28 0 -0.0774 0.28 0.0282 -0.0631 0.28 0.0529 -0.0412 0.28 0.0713 -0.0143 0.28 0.0811 0.0143 0.28 0.0811 0.0412 0.28 0.0713 0.0631 0.28 0.0529 0.0774 0.28 0.0282 0.0755 0 -0.0275 0.0803 0 0 0.0755 0 0.0275 0.0615 0 0.0516 0.0402 0 0.0695 0.0139 0 0.0791 -0.0139 0 0.0791 -0.0402 0 0.0695 -0.0615 0 0.0516 -0.0755 0 0.0275 -0.0803 0 0 -0.0755 0 -0.0275 -0.0615 0 -0.0516 -0.0402 0 -0.0695 -0.0139 0 -0.0791 0.0139 0 -0.0791 0.0402 0 -0.0695 0.0615 0 -0.0516 0.0755 -0.015 -0.0275 0.0803 -0.015 0 0.0755 -0.015 0.0275 0.0615 -0.015 0.0516 0.0402 -0.015 0.0695 0.0139 -0.015 0.0791 -0.0139 -0.015 0.0791 -0.0402 -0.015 0.0695 -0.0615 -0.015 0.0516 -0.0755 -0.015 0.0275 -0.0803 -0.015 0 -0.0755 -0.015 -0.0275 -0.0615 -0.015 -0.0516 -0.0402 -0.015 -0.0695 -0.0139 -0.015 -0.0791 0.0139 -0.015 -0.0791 0.0402 -0.015 -0.0695 0.0615 -0.015 -0.0516 0.0774 -0.015 -0.0282 0.0823 -0.015 0 0.0774 -0.015 0.0282 0.0631 -0.015 0.0529 0.0412 -0.015 0.0713 0.0143 -0.015 0.0811 -0.0143 -0.015 0.0811 -0.0412 -0.015 0.0713 -0.0631 -0.015 0.0529 -0.0774 -0.015 0.0282 -0.0823 -0.015 0 -0.0774 -0.015 -0.0282 -0.0631 -0.015 -0.0529 -0.0412 -0.015 -0.0713 -0.0143 -0.015 -0.0811 0.0143 -0.015 -0.0811 0.0412 -0.015 -0.0713 0.0631 -0.015 -0.0529 0.0774 -0.03 -0.0282 0.0823 -0.03 0 0.0774 -0.03 0.0282 0.0631 -0.03 0.0529 0.0412 -0.03 0.0713 0.0143 -0.03 0.0811 -0.0143 -0.03 0.0811 -0.0412 -0.03 0.0713 -0.0631 -0.03 0.0529 -0.0774 -0.03 0.0282 -0.0823 -0.03 0 -0.0774 -0.03 -0.0282 -0.0631 -0.03 -0.0529 -0.0412 -0.03 -0.0713 -0.0143 -0.03 -0.0811 0.0143 -0.03 -0.0811 0.0412 -0.03 -0.0713 0.0631 -0.03 -0.0529 0.0583 -0.03 -0.0212 0.062 -0.03 0 0.0583 -0.03 0.0212 0.0475 -0.03 0.0399 0.031 -0.03 0.0537 0.0108 -0.03 0.0611 -0.0108 -0.03 0.0611 -0.031 -0.03 0.0537 -0.0475 -0.03 0.0399 -0.0583 -0.03 0.0212 -0.062 -0.03 0 -0.0583 -0.03 -0.0212 -0.0475 -0.03 -0.0399 -0.031 -0.03 -0.0537 -0.0108 -0.03 -0.0611 0.0108 -0.03 -0.0611 0.031 -0.03 -0.0537 0.0475 -0.03 -0.0399 0.0583 -0.06 -0.0212 0.062 -0.06 0 0.0583 -0.06 0.0212 0.0475 -0.06 0.0399 0.031 -0.06 0.0537 0.0108 -0.06 0.0611 -0.0108 -0.06 0.0611 -0.031 -0.06 0.0537 -0.0475 -0.06 0.0399 -0.0583 -0.06 0.0212 -0.062 -0.06 0 -0.0583 -0.06 -0.0212 -0.0475 -0.06 -0.0399 -0.031 -0.06 -0.0537 -0.0108 -0.06 -0.0611 0.0108 -0.06 -0.0611 0.031 -0.06 -0.0537 0.0475 -0.06 -0.0399 0.0774 -0.06 -0.0282 0.0823 -0.06 0 0.0774 -0.06 0.0282 0.0631 -0.06 0.0529 0.0412 -0.06 0.0713 0.0143 -0.06 0.0811 -0.0143 -0.06 0.0811 -0.0412 -0.06 0.0713 -0.0631 -0.06 0.0529 -0.0774 -0.06 0.0282 -0.0823 -0.06 0 -0.0774 -0.06 -0.0282 -0.0631 -0.06 -0.0529 -0.0412 -0.06 -0.0713 -0.0143 -0.06 -0.0811 0.0143 -0.06 -0.0811 0.0412 -0.06 -0.0713 0.0631 -0.06 -0.0529 0.0774 -0.075 -0.0282 0.0823 -0.075 0 0.0774 -0.075 0.0282 0.0631 -0.075 0.0529 0.0412 -0.075 0.0713 0.0143 -0.075 0.0811 -0.0143 -0.075 0.0811 -0.0412 -0.075 0.0713 -0.0631 -0.075 0.0529 -0.0774 -0.075 0.0282 -0.0823 -0.075 0 -0.0774 -0.075 -0.0282 -0.0631 -0.075 -0.0529 -0.0412 -0.075 -0.0713 -0.0143 -0.075 -0.0811 0.0143 -0.075 -0.0811 0.0412 -0.075 -0.0713 0.0631 -0.075 -0.0529 0.0755 -0.075 -0.0275 0.0803 -0.075 0 0.0755 -0.075 0.0275 0.0615 -0.075 0.0516 0.0402 -0.075 0.0695 0.0139 -0.075 0.0791 -0.0139 -0.075 0.0791 -0.0402 -0.075 0.0695 -0.0615 -0.075 0.0516 -0.0755 -0.075 0.0275 -0.0803 -0.075 0 -0.0755 -0.075 -0.0275 -0.0615 -0.075 -0.0516 -0.0402 -0.075 -0.0695 -0.0139 -0.075 -0.0791 0.0139 -0.075 -0.0791 0.0402 -0.075 -0.0695 0.0615 -0.075 -0.0516 0.0755 -0.125 -0.0275 0.0803 -0.125 0 0.0755 -0.125 0.0275 0.0615 -0.125 0.0516 0.0402 -0.125 0.0695 0.0139 -0.125 0.0791 -0.0139 -0.125 0.0791 -0.0402 -0.125 0.0695 -0.0615 -0.125 0.0516 -0.0755 -0.125 0.0275 -0.0803 -0.125 0 -0.0755 -0.125 -0.0275 -0.0615 -0.125 -0.0516 -0.0402 -0.125 -0.0695 -0.0139 -0.125 -0.0791 0.0139 -0.125 -0.0791 0.0402 -0.125 -0.0695 0.0615 -0.125 -0.0516 0.0564 -0.125 -0.0205 0.06 -0.125 0 0.0564 -0.125 0.0205 0.046 -0.125 0.0386 0.03 -0.125 0.052 0.0104 -0.125 0.0591 -0.0104 -0.125 0.0591 -0.03 -0.125 0.052 -0.046 -0.125 0.0386 -0.0564 -0.125 0.0205 -0.06 -0.125 0 -0.0564 -0.125 -0.0205 -0.046 -0.125 -0.0386 -0.03 -0.125 -0.052 -0.0104 -0.125 -0.0591 0.0104 -0.125 -0.0591 0.03 -0.125 -0.052 0.046 -0.125 -0.0386 0.0564 -0.145 -0.0205 0.06 -0.145 0 0.0564 -0.145 0.0205 0.046 -0.145 0.0386 0.03 -0.145 0.052 0.0104 -0.145 0.0591 -0.0104 -0.145 0.0591 -0.03 -0.145 0.052 -0.046 -0.145 0.0386 -0.0564 -0.145 0.0205 -0.06 -0.145 0 -0.0564 -0.145 -0.0205 -0.046 -0.145 -0.0386 -0.03 -0.145 -0.052 -0.0104 -0.145 -0.0591 0.0104 -0.145 -0.0591 0.03 -0.145 -0.052 0.046 -0.145 -0.0386 0.0755 -0.165 -0.0275 0.0803 -0.165 0 0.0755 -0.165 0.0275 0.0615 -0.165 0.0516 0.0402 -0.165 0.0695 0.0139 -0.165 0.0791 -0.0139 -0.165 0.0791 -0.0402 -0.165 0.0695 -0.0615 -0.165 0.0516 -0.0755 -0.165 0.0275 -0.0803 -0.165 0 -0.0755 -0.165 -0.0275 -0.0615 -0.165 -0.0516 -0.0402 -0.165 -0.0695 -0.0139 -0.165 -0.0791 0.0139 -0.165 -0.0791 0.0402 -0.165 -0.0695 0.0615 -0.165 -0.0516 0.085 -0.265 -0.0309 0.0905 -0.265 0 0.085 -0.265 0.0309 0.0693 -0.265 0.0581 0.0452 -0.265 0.0783 0.0157 -0.265 0.0891 -0.0157 -0.265 0.0891 -0.0452 -0.265 0.0783 -0.0693 -0.265 0.0581 -0.085 -0.265 0.0309 -0.0905 -0.265 0 -0.085 -0.265 -0.0309 -0.0693 -0.265 -0.0581 -0.0452 -0.265 -0.0783 -0.0157 -0.265 -0.0891 0.0157 -0.265 -0.0891 0.0452 -0.265 -0.0783 0.0693 -0.265 -0.0581 0.104 -0.285 -0.0379 0.111 -0.285 0 0.104 -0.285 0.0379 0.0849 -0.285 0.0712 0.0554 -0.285 0.0959 0.0192 -0.285 0.109 -0.0192 -0.285 0.109 -0.0554 -0.285 0.0959 -0.0849 -0.285 0.0712 -0.104 -0.285 0.0379 -0.111 -0.285 0 -0.104 -0.285 -0.0379 -0.0849 -0.285 -0.0712 -0.0554 -0.285 -0.0959 -0.0192 -0.285 -0.109 0.0192 -0.285 -0.109 0.0554 -0.285 -0.0959 0.0849 -0.285 -0.0712 0.104 -0.325 -0.0379 0.111 -0.325 0 0.104 -0.325 0.0379 0.0849 -0.325 0.0712 0.0554 -0.325 0.0959 0.0192 -0.325 0.109 -0.0192 -0.325 0.109 -0.0554 -0.325 0.0959 -0.0849 -0.325 0.0712 -0.104 -0.325 0.0379 -0.111 -0.325 0 -0.104 -0.325 -0.0379 -0.0849 -0.325 -0.0712 -0.0554 -0.325 -0.0959 -0.0192 -0.325 -0.109 0.0192 -0.325 -0.109 0.0554 -0.325 -0.0959 0.0849 -0.325 -0.0712 0.114 -0.325 -0.0414 0.121 -0.325 0 0.114 -0.325 0.0414 0.0926 -0.325 0.0777 0.0605 -0.325 0.105 0.021 -0.325 0.119 -0.021 -0.325 0.119 -0.0605 -0.325 0.105 -0.0926 -0.325 0.0777 -0.114 -0.325 0.0414 -0.121 -0.325 0 -0.114 -0.325 -0.0414 -0.0926 -0.325 -0.0777 -0.0605 -0.325 -0.105 -0.021 -0.325 -0.119 0.021 -0.325 -0.119 0.0605 -0.325 -0.105 0.0926 -0.325 -0.0777 0.114 -0.365 -0.0414 0.121 -0.365 0 0.114 -0.365 0.0414 0.0926 -0.365 0.0777 0.0605 -0.365 0.105 0.021 -0.365 0.119 -0.021 -0.365 0.119 -0.0605 -0.365 0.105 -0.0926 -0.365 0.0777 -0.114 -0.365 0.0414 -0.121 -0.365 0 -0.114 -0.365 -0.0414 -0.0926 -0.365 -0.0777 -0.0605 -0.365 -0.105 -0.021 -0.365 -0.119 0.021 -0.365 -0.119 0.0605 -0.365 -0.105 0.0926 -0.365 -0.0777'/>
              </IndexedFaceSet>
            </Shape>
          </Transform>
          <Transform DEF='vyveva_drzak' translation='0.358 0.73 -0.128'>
            <Transform translation='0 0.0075 0'>
              <Shape>
                <Appearance USE='metalAP'/>
                <Box size='0.16 0.015 0.7'/>
              </Shape>
            </Transform>
          </Transform>
          <Transform DEF='vypust_vyveva' rotation='0.942 -0.291 -0.168 -0.922' translation='0.531 0.546 -0.446'>
            <Transform DEF='vyveva_privod' translation='-0.014 -0.079 0'>
              <Shape>
                <Appearance USE='metalAP'/>
                <IndexedFaceSet DEF='vyveva_privod-FACES' creaseAngle='1' coordIndex='0 1 21 -1 21 20 0 -1 1 2 22 -1 22 21 1 -1 2 3 23 -1 23 22 2 -1 3 4 24 -1 24 23 3 -1 4 5 25 -1 25 24 4 -1 5 6 26 -1 26 25 5 -1 6 7 27 -1 27 26 6 -1 7 8 28 -1 28 27 7 -1 8 9 29 -1 29 28 8 -1 9 10 30 -1 30 29 9 -1 10 11 31 -1 31 30 10 -1 11 12 32 -1 32 31 11 -1 12 13 33 -1 33 32 12 -1 13 14 34 -1 34 33 13 -1 14 15 35 -1 35 34 14 -1 15 16 36 -1 36 35 15 -1 16 17 37 -1 37 36 16 -1 17 18 38 -1 38 37 17 -1 18 19 39 -1 39 38 18 -1 19 0 20 -1 20 39 19 -1 143 144 145 -1 145 146 147 -1 147 148 149 -1 145 147 149 -1 149 150 151 -1 151 152 153 -1 149 151 153 -1 153 154 155 -1 155 156 157 -1 153 155 157 -1 157 158 159 -1 159 140 141 -1 157 159 141 -1 153 157 141 -1 149 153 141 -1 145 149 141 -1 143 145 141 -1 142 143 141 -1 101 102 103 -1 103 104 105 -1 105 106 107 -1 103 105 107 -1 107 108 109 -1 109 110 111 -1 107 109 111 -1 111 112 113 -1 113 114 115 -1 111 113 115 -1 115 116 117 -1 117 118 119 -1 115 117 119 -1 111 115 119 -1 107 111 119 -1 103 107 119 -1 101 103 119 -1 100 101 119 -1 20 21 41 -1 41 40 20 -1 21 22 42 -1 42 41 21 -1 22 23 43 -1 43 42 22 -1 23 24 44 -1 44 43 23 -1 24 25 45 -1 45 44 24 -1 25 26 46 -1 46 45 25 -1 26 27 47 -1 47 46 26 -1 27 28 48 -1 48 47 27 -1 28 29 49 -1 49 48 28 -1 29 30 50 -1 50 49 29 -1 30 31 51 -1 51 50 30 -1 31 32 52 -1 52 51 31 -1 32 33 53 -1 53 52 32 -1 33 34 54 -1 54 53 33 -1 34 35 55 -1 55 54 34 -1 35 36 56 -1 56 55 35 -1 36 37 57 -1 57 56 36 -1 37 38 58 -1 58 57 37 -1 38 39 59 -1 59 58 38 -1 39 20 40 -1 40 59 39 -1 40 41 61 -1 61 60 40 -1 41 42 62 -1 62 61 41 -1 42 43 63 -1 63 62 42 -1 43 44 64 -1 64 63 43 -1 44 45 65 -1 65 64 44 -1 45 46 66 -1 66 65 45 -1 46 47 67 -1 67 66 46 -1 47 48 68 -1 68 67 47 -1 48 49 69 -1 69 68 48 -1 49 50 70 -1 70 69 49 -1 50 51 71 -1 71 70 50 -1 51 52 72 -1 72 71 51 -1 52 53 73 -1 73 72 52 -1 53 54 74 -1 74 73 53 -1 54 55 75 -1 75 74 54 -1 55 56 76 -1 76 75 55 -1 56 57 77 -1 77 76 56 -1 57 58 78 -1 78 77 57 -1 58 59 79 -1 79 78 58 -1 59 40 60 -1 60 79 59 -1 60 61 81 -1 81 80 60 -1 61 62 82 -1 82 81 61 -1 62 63 83 -1 83 82 62 -1 63 64 84 -1 84 83 63 -1 64 65 85 -1 85 84 64 -1 65 66 86 -1 86 85 65 -1 66 67 87 -1 87 86 66 -1 67 68 88 -1 88 87 67 -1 68 69 89 -1 89 88 68 -1 69 70 90 -1 90 89 69 -1 70 71 91 -1 91 90 70 -1 71 72 92 -1 92 91 71 -1 72 73 93 -1 93 92 72 -1 73 74 94 -1 94 93 73 -1 74 75 95 -1 95 94 74 -1 75 76 96 -1 96 95 75 -1 76 77 97 -1 97 96 76 -1 77 78 98 -1 98 97 77 -1 78 79 99 -1 99 98 78 -1 79 60 80 -1 80 99 79 -1 80 81 101 -1 101 100 80 -1 81 82 102 -1 102 101 81 -1 82 83 103 -1 103 102 82 -1 83 84 104 -1 104 103 83 -1 84 85 105 -1 105 104 84 -1 85 86 106 -1 106 105 85 -1 86 87 107 -1 107 106 86 -1 87 88 108 -1 108 107 87 -1 88 89 109 -1 109 108 88 -1 89 90 110 -1 110 109 89 -1 90 91 111 -1 111 110 90 -1 91 92 112 -1 112 111 91 -1 92 93 113 -1 113 112 92 -1 93 94 114 -1 114 113 93 -1 94 95 115 -1 115 114 94 -1 95 96 116 -1 116 115 95 -1 96 97 117 -1 117 116 96 -1 97 98 118 -1 118 117 97 -1 98 99 119 -1 119 118 98 -1 99 80 100 -1 100 119 99 -1 1 0 121 -1 121 120 1 -1 0 19 122 -1 122 121 0 -1 19 18 123 -1 123 122 19 -1 18 17 124 -1 124 123 18 -1 17 16 125 -1 125 124 17 -1 16 15 126 -1 126 125 16 -1 15 14 127 -1 127 126 15 -1 14 13 128 -1 128 127 14 -1 13 12 129 -1 129 128 13 -1 12 11 130 -1 130 129 12 -1 11 10 131 -1 131 130 11 -1 10 9 132 -1 132 131 10 -1 9 8 133 -1 133 132 9 -1 8 7 134 -1 134 133 8 -1 7 6 135 -1 135 134 7 -1 6 5 136 -1 136 135 6 -1 5 4 137 -1 137 136 5 -1 4 3 138 -1 138 137 4 -1 3 2 139 -1 139 138 3 -1 2 1 120 -1 120 139 2 -1 120 121 141 -1 141 140 120 -1 121 122 142 -1 142 141 121 -1 122 123 143 -1 143 142 122 -1 123 124 144 -1 144 143 123 -1 124 125 145 -1 145 144 124 -1 125 126 146 -1 146 145 125 -1 126 127 147 -1 147 146 126 -1 127 128 148 -1 148 147 127 -1 128 129 149 -1 149 148 128 -1 129 130 150 -1 150 149 129 -1 130 131 151 -1 151 150 130 -1 131 132 152 -1 152 151 131 -1 132 133 153 -1 153 152 132 -1 133 134 154 -1 154 153 133 -1 134 135 155 -1 155 154 134 -1 135 136 156 -1 156 155 135 -1 136 137 157 -1 157 156 136 -1 137 138 158 -1 158 157 137 -1 138 139 159 -1 159 158 138 -1 139 120 140 -1 140 159 139 -1'>
                  <Coordinate DEF='vyveva_privod-COORD' point='0.02 0 0 0.019 0 -0.00618 0.0162 0 -0.0118 0.0118 0 -0.0162 0.00618 0 -0.019 0 0 -0.02 -0.00618 0 -0.019 -0.0118 0 -0.0162 -0.0162 0 -0.0118 -0.019 0 -0.00618 -0.02 0 0 -0.019 0 0.00618 -0.0162 0 0.0118 -0.0118 0 0.0162 -0.00618 0 0.019 0 0 0.02 0.00618 0 0.019 0.0118 0 0.0162 0.0162 0 0.0118 0.019 0 0.00618 0.02 0.15 0 0.019 0.15 -0.00618 0.0162 0.15 -0.0118 0.0118 0.15 -0.0162 0.00618 0.15 -0.019 0 0.15 -0.02 -0.00618 0.15 -0.019 -0.0118 0.15 -0.0162 -0.0162 0.15 -0.0118 -0.019 0.15 -0.00618 -0.02 0.15 0 -0.019 0.15 0.00618 -0.0162 0.15 0.0118 -0.0118 0.15 0.0162 -0.00618 0.15 0.019 0 0.15 0.02 0.00618 0.15 0.019 0.0118 0.15 0.0162 0.0162 0.15 0.0118 0.019 0.15 0.00618 0.0402 0.15 0 0.0383 0.15 -0.0124 0.0326 0.15 -0.0237 0.0237 0.15 -0.0326 0.0124 0.15 -0.0383 0 0.15 -0.0402 -0.0124 0.15 -0.0383 -0.0237 0.15 -0.0326 -0.0326 0.15 -0.0237 -0.0383 0.15 -0.0124 -0.0402 0.15 0 -0.0383 0.15 0.0124 -0.0326 0.15 0.0237 -0.0237 0.15 0.0326 -0.0124 0.15 0.0383 0 0.15 0.0402 0.0124 0.15 0.0383 0.0237 0.15 0.0326 0.0326 0.15 0.0237 0.0383 0.15 0.0124 0.0402 0.16 0 0.0383 0.16 -0.0124 0.0326 0.16 -0.0237 0.0237 0.16 -0.0326 0.0124 0.16 -0.0383 0 0.16 -0.0402 -0.0124 0.16 -0.0383 -0.0237 0.16 -0.0326 -0.0326 0.16 -0.0237 -0.0383 0.16 -0.0124 -0.0402 0.16 0 -0.0383 0.16 0.0124 -0.0326 0.16 0.0237 -0.0237 0.16 0.0326 -0.0124 0.16 0.0383 0 0.16 0.0402 0.0124 0.16 0.0383 0.0237 0.16 0.0326 0.0326 0.16 0.0237 0.0383 0.16 0.0124 0.0352 0.16 0 0.0335 0.16 -0.0109 0.0285 0.16 -0.0207 0.0207 0.16 -0.0285 0.0109 0.16 -0.0335 0 0.16 -0.0352 -0.0109 0.16 -0.0335 -0.0207 0.16 -0.0285 -0.0285 0.16 -0.0207 -0.0335 0.16 -0.0109 -0.0352 0.16 0 -0.0335 0.16 0.0109 -0.0285 0.16 0.0207 -0.0207 0.16 0.0285 -0.0109 0.16 0.0335 0 0.16 0.0352 0.0109 0.16 0.0335 0.0207 0.16 0.0285 0.0285 0.16 0.0207 0.0335 0.16 0.0109 0.0352 0.17 0 0.0335 0.17 -0.0109 0.0285 0.17 -0.0207 0.0207 0.17 -0.0285 0.0109 0.17 -0.0335 0 0.17 -0.0352 -0.0109 0.17 -0.0335 -0.0207 0.17 -0.0285 -0.0285 0.17 -0.0207 -0.0335 0.17 -0.0109 -0.0352 0.17 0 -0.0335 0.17 0.0109 -0.0285 0.17 0.0207 -0.0207 0.17 0.0285 -0.0109 0.17 0.0335 0 0.17 0.0352 0.0109 0.17 0.0335 0.0207 0.17 0.0285 0.0285 0.17 0.0207 0.0335 0.17 0.0109 0.0479 0 -0.0156 0.0504 0 0 0.0479 0 0.0156 0.0408 0 0.0296 0.0296 0 0.0408 0.0156 0 0.0479 0 0 0.0504 -0.0156 0 0.0479 -0.0296 0 0.0408 -0.0408 0 0.0296 -0.0479 0 0.0156 -0.0504 0 0 -0.0479 0 -0.0156 -0.0408 0 -0.0296 -0.0296 0 -0.0408 -0.0156 0 -0.0479 0 0 -0.0504 0.0156 0 -0.0479 0.0296 0 -0.0408 0.0408 0 -0.0296 0.0479 -0.02 -0.0156 0.0504 -0.02 0 0.0479 -0.02 0.0156 0.0408 -0.02 0.0296 0.0296 -0.02 0.0408 0.0156 -0.02 0.0479 0 -0.02 0.0504 -0.0156 -0.02 0.0479 -0.0296 -0.02 0.0408 -0.0408 -0.02 0.0296 -0.0479 -0.02 0.0156 -0.0504 -0.02 0 -0.0479 -0.02 -0.0156 -0.0408 -0.02 -0.0296 -0.0296 -0.02 -0.0408 -0.0156 -0.02 -0.0479 0 -0.02 -0.0504 0.0156 -0.02 -0.0479 0.0296 -0.02 -0.0408 0.0408 -0.02 -0.0296'/>
                </IndexedFaceSet>
              </Shape>
            </Transform>
            <Transform DEF='vyveva_privod2' rotation='0 0 1 -1.57' translation='-0.089 -0.00401 0'>
              <Shape>
                <Appearance USE='metalAP'/>
                <IndexedFaceSet DEF='vyveva_privod2-FACES' creaseAngle='1' coordIndex='0 1 21 -1 21 20 0 -1 1 2 22 -1 22 21 1 -1 2 3 23 -1 23 22 2 -1 3 4 24 -1 24 23 3 -1 4 5 25 -1 25 24 4 -1 5 6 26 -1 26 25 5 -1 6 7 27 -1 27 26 6 -1 7 8 28 -1 28 27 7 -1 8 9 29 -1 29 28 8 -1 9 10 30 -1 30 29 9 -1 10 11 31 -1 31 30 10 -1 11 12 32 -1 32 31 11 -1 12 13 33 -1 33 32 12 -1 13 14 34 -1 34 33 13 -1 14 15 35 -1 35 34 14 -1 15 16 36 -1 36 35 15 -1 16 17 37 -1 37 36 16 -1 17 18 38 -1 38 37 17 -1 18 19 39 -1 39 38 18 -1 19 0 20 -1 20 39 19 -1 18 17 16 -1 16 15 14 -1 14 13 12 -1 16 14 12 -1 12 11 10 -1 10 9 8 -1 12 10 8 -1 8 7 6 -1 6 5 4 -1 8 6 4 -1 4 3 2 -1 2 1 0 -1 4 2 0 -1 8 4 0 -1 12 8 0 -1 16 12 0 -1 18 16 0 -1 19 18 0 -1 101 102 103 -1 103 104 105 -1 105 106 107 -1 103 105 107 -1 107 108 109 -1 109 110 111 -1 107 109 111 -1 111 112 113 -1 113 114 115 -1 111 113 115 -1 115 116 117 -1 117 118 119 -1 115 117 119 -1 111 115 119 -1 107 111 119 -1 103 107 119 -1 101 103 119 -1 100 101 119 -1 20 21 41 -1 41 40 20 -1 21 22 42 -1 42 41 21 -1 22 23 43 -1 43 42 22 -1 23 24 44 -1 44 43 23 -1 24 25 45 -1 45 44 24 -1 25 26 46 -1 46 45 25 -1 26 27 47 -1 47 46 26 -1 27 28 48 -1 48 47 27 -1 28 29 49 -1 49 48 28 -1 29 30 50 -1 50 49 29 -1 30 31 51 -1 51 50 30 -1 31 32 52 -1 52 51 31 -1 32 33 53 -1 53 52 32 -1 33 34 54 -1 54 53 33 -1 34 35 55 -1 55 54 34 -1 35 36 56 -1 56 55 35 -1 36 37 57 -1 57 56 36 -1 37 38 58 -1 58 57 37 -1 38 39 59 -1 59 58 38 -1 39 20 40 -1 40 59 39 -1 40 41 61 -1 61 60 40 -1 41 42 62 -1 62 61 41 -1 42 43 63 -1 63 62 42 -1 43 44 64 -1 64 63 43 -1 44 45 65 -1 65 64 44 -1 45 46 66 -1 66 65 45 -1 46 47 67 -1 67 66 46 -1 47 48 68 -1 68 67 47 -1 48 49 69 -1 69 68 48 -1 49 50 70 -1 70 69 49 -1 50 51 71 -1 71 70 50 -1 51 52 72 -1 72 71 51 -1 52 53 73 -1 73 72 52 -1 53 54 74 -1 74 73 53 -1 54 55 75 -1 75 74 54 -1 55 56 76 -1 76 75 55 -1 56 57 77 -1 77 76 56 -1 57 58 78 -1 78 77 57 -1 58 59 79 -1 79 78 58 -1 59 40 60 -1 60 79 59 -1 60 61 81 -1 81 80 60 -1 61 62 82 -1 82 81 61 -1 62 63 83 -1 83 82 62 -1 63 64 84 -1 84 83 63 -1 64 65 85 -1 85 84 64 -1 65 66 86 -1 86 85 65 -1 66 67 87 -1 87 86 66 -1 67 68 88 -1 88 87 67 -1 68 69 89 -1 89 88 68 -1 69 70 90 -1 90 89 69 -1 70 71 91 -1 91 90 70 -1 71 72 92 -1 92 91 71 -1 72 73 93 -1 93 92 72 -1 73 74 94 -1 94 93 73 -1 74 75 95 -1 95 94 74 -1 75 76 96 -1 96 95 75 -1 76 77 97 -1 97 96 76 -1 77 78 98 -1 98 97 77 -1 78 79 99 -1 99 98 78 -1 79 60 80 -1 80 99 79 -1 80 81 101 -1 101 100 80 -1 81 82 102 -1 102 101 81 -1 82 83 103 -1 103 102 82 -1 83 84 104 -1 104 103 83 -1 84 85 105 -1 105 104 84 -1 85 86 106 -1 106 105 85 -1 86 87 107 -1 107 106 86 -1 87 88 108 -1 108 107 87 -1 88 89 109 -1 109 108 88 -1 89 90 110 -1 110 109 89 -1 90 91 111 -1 111 110 90 -1 91 92 112 -1 112 111 91 -1 92 93 113 -1 113 112 92 -1 93 94 114 -1 114 113 93 -1 94 95 115 -1 115 114 94 -1 95 96 116 -1 116 115 95 -1 96 97 117 -1 117 116 96 -1 97 98 118 -1 118 117 97 -1 98 99 119 -1 119 118 98 -1 99 80 100 -1 100 119 99 -1'>
                  <Coordinate DEF='vyveva_privod2-COORD' point='0.02 0 0 0.019 0 -0.00618 0.0162 0 -0.0118 0.0118 0 -0.0162 0.00618 0 -0.019 0 0 -0.02 -0.00618 0 -0.019 -0.0118 0 -0.0162 -0.0162 0 -0.0118 -0.019 0 -0.00618 -0.02 0 0 -0.019 0 0.00618 -0.0162 0 0.0118 -0.0118 0 0.0162 -0.00618 0 0.019 0 0 0.02 0.00618 0 0.019 0.0118 0 0.0162 0.0162 0 0.0118 0.019 0 0.00618 0.02 0.15 0 0.019 0.15 -0.00618 0.0162 0.15 -0.0118 0.0118 0.15 -0.0162 0.00618 0.15 -0.019 0 0.15 -0.02 -0.00618 0.15 -0.019 -0.0118 0.15 -0.0162 -0.0162 0.15 -0.0118 -0.019 0.15 -0.00618 -0.02 0.15 0 -0.019 0.15 0.00618 -0.0162 0.15 0.0118 -0.0118 0.15 0.0162 -0.00618 0.15 0.019 0 0.15 0.02 0.00618 0.15 0.019 0.0118 0.15 0.0162 0.0162 0.15 0.0118 0.019 0.15 0.00618 0.0402 0.15 0 0.0383 0.15 -0.0124 0.0326 0.15 -0.0237 0.0237 0.15 -0.0326 0.0124 0.15 -0.0383 0 0.15 -0.0402 -0.0124 0.15 -0.0383 -0.0237 0.15 -0.0326 -0.0326 0.15 -0.0237 -0.0383 0.15 -0.0124 -0.0402 0.15 0 -0.0383 0.15 0.0124 -0.0326 0.15 0.0237 -0.0237 0.15 0.0326 -0.0124 0.15 0.0383 0 0.15 0.0402 0.0124 0.15 0.0383 0.0237 0.15 0.0326 0.0326 0.15 0.0237 0.0383 0.15 0.0124 0.0402 0.16 0 0.0383 0.16 -0.0124 0.0326 0.16 -0.0237 0.0237 0.16 -0.0326 0.0124 0.16 -0.0383 0 0.16 -0.0402 -0.0124 0.16 -0.0383 -0.0237 0.16 -0.0326 -0.0326 0.16 -0.0237 -0.0383 0.16 -0.0124 -0.0402 0.16 0 -0.0383 0.16 0.0124 -0.0326 0.16 0.0237 -0.0237 0.16 0.0326 -0.0124 0.16 0.0383 0 0.16 0.0402 0.0124 0.16 0.0383 0.0237 0.16 0.0326 0.0326 0.16 0.0237 0.0383 0.16 0.0124 0.0352 0.16 0 0.0335 0.16 -0.0109 0.0285 0.16 -0.0207 0.0207 0.16 -0.0285 0.0109 0.16 -0.0335 0 0.16 -0.0352 -0.0109 0.16 -0.0335 -0.0207 0.16 -0.0285 -0.0285 0.16 -0.0207 -0.0335 0.16 -0.0109 -0.0352 0.16 0 -0.0335 0.16 0.0109 -0.0285 0.16 0.0207 -0.0207 0.16 0.0285 -0.0109 0.16 0.0335 0 0.16 0.0352 0.0109 0.16 0.0335 0.0207 0.16 0.0285 0.0285 0.16 0.0207 0.0335 0.16 0.0109 0.0352 0.17 0 0.0335 0.17 -0.0109 0.0285 0.17 -0.0207 0.0207 0.17 -0.0285 0.0109 0.17 -0.0335 0 0.17 -0.0352 -0.0109 0.17 -0.0335 -0.0207 0.17 -0.0285 -0.0285 0.17 -0.0207 -0.0335 0.17 -0.0109 -0.0352 0.17 0 -0.0335 0.17 0.0109 -0.0285 0.17 0.0207 -0.0207 0.17 0.0285 -0.0109 0.17 0.0335 0 0.17 0.0352 0.0109 0.17 0.0335 0.0207 0.17 0.0285 0.0285 0.17 0.0207 0.0335 0.17 0.0109'/>
                </IndexedFaceSet>
              </Shape>
            </Transform>
            <Transform DEF='sroub_vv01' translation='0.0111 0.059 0'>
              <Transform DEF='sroub2' translation='0 0.02 0'>
                <Shape>
                  <Appearance>
                    <Material ambientIntensity='0.123' diffuseColor='0.47 0.52 0.58' shininess='0.13' specularColor='1 1 1'/>
                  </Appearance>
                  <Cylinder height='0.04' radius='0.006'/>
                </Shape>
              </Transform>
            </Transform>
            <Transform DEF='sroub_vv' translation='-0.0396 0.059 0'>
              <Transform USE='sroub2'/>
            </Transform>
            <Transform DEF='sroub_vv02' rotation='0 -1 0 -1.57' translation='-0.0141 0.059 -0.0252'>
              <Transform USE='sroub2'/>
            </Transform>
            <Transform DEF='sroub_vv03' rotation='0 -1 0 -1.57' translation='-0.0141 0.059 0.0256'>
              <Transform USE='sroub2'/>
            </Transform>
            <Transform DEF='sroub_vv04' rotation='0 0 1 -1.57' translation='0.049 -0.0295 0'>
              <Transform USE='sroub2'/>
            </Transform>
            <Transform DEF='sroub_vv05' rotation='0 0 1 -1.57' translation='0.049 0.0212 0'>
              <Transform USE='sroub2'/>
            </Transform>
            <Transform DEF='sroub_vv06' rotation='-0.577 -0.577 0.577 -2.09' translation='0.049 -0.00434 -0.0252'>
              <Transform USE='sroub2'/>
            </Transform>
            <Transform DEF='sroub_vv07' rotation='-0.577 -0.577 0.577 -2.09' translation='0.049 -0.00434 0.0256'>
              <Transform USE='sroub2'/>
            </Transform>
          </Transform>
          <Transform DEF='Hose01' rotation='0.11 -0.979 0.173 -2.03' translation='0.642 -0.147 0.0892'>
            <Shape>
              <Appearance>
                <Material ambientIntensity='1' diffuseColor='0.463 0.388 0.271' shininess='0.572' specularColor='0.963 0.963 0.963'/>
              </Appearance>
              <IndexedFaceSet DEF='Hose01-FACES' creaseAngle='1' coordIndex='1 0 588 -1 2 1 588 -1 3 2 588 -1 4 3 588 -1 5 4 588 -1 6 5 588 -1 7 6 588 -1 8 7 588 -1 9 8 588 -1 10 9 588 -1 11 10 588 -1 0 11 588 -1 13 12 0 -1 0 1 13 -1 14 13 1 -1 1 2 14 -1 15 14 2 -1 2 3 15 -1 16 15 3 -1 3 4 16 -1 17 16 4 -1 4 5 17 -1 18 17 5 -1 5 6 18 -1 19 18 6 -1 6 7 19 -1 20 19 7 -1 7 8 20 -1 21 20 8 -1 8 9 21 -1 22 21 9 -1 9 10 22 -1 23 22 10 -1 10 11 23 -1 12 23 11 -1 11 0 12 -1 25 24 12 -1 12 13 25 -1 26 25 13 -1 13 14 26 -1 27 26 14 -1 14 15 27 -1 28 27 15 -1 15 16 28 -1 29 28 16 -1 16 17 29 -1 30 29 17 -1 17 18 30 -1 31 30 18 -1 18 19 31 -1 32 31 19 -1 19 20 32 -1 33 32 20 -1 20 21 33 -1 34 33 21 -1 21 22 34 -1 35 34 22 -1 22 23 35 -1 24 35 23 -1 23 12 24 -1 37 36 24 -1 24 25 37 -1 38 37 25 -1 25 26 38 -1 39 38 26 -1 26 27 39 -1 40 39 27 -1 27 28 40 -1 41 40 28 -1 28 29 41 -1 42 41 29 -1 29 30 42 -1 43 42 30 -1 30 31 43 -1 44 43 31 -1 31 32 44 -1 45 44 32 -1 32 33 45 -1 46 45 33 -1 33 34 46 -1 47 46 34 -1 34 35 47 -1 36 47 35 -1 35 24 36 -1 49 48 36 -1 36 37 49 -1 50 49 37 -1 37 38 50 -1 51 50 38 -1 38 39 51 -1 52 51 39 -1 39 40 52 -1 53 52 40 -1 40 41 53 -1 54 53 41 -1 41 42 54 -1 55 54 42 -1 42 43 55 -1 56 55 43 -1 43 44 56 -1 57 56 44 -1 44 45 57 -1 58 57 45 -1 45 46 58 -1 59 58 46 -1 46 47 59 -1 48 59 47 -1 47 36 48 -1 61 60 48 -1 48 49 61 -1 62 61 49 -1 49 50 62 -1 63 62 50 -1 50 51 63 -1 64 63 51 -1 51 52 64 -1 65 64 52 -1 52 53 65 -1 66 65 53 -1 53 54 66 -1 67 66 54 -1 54 55 67 -1 68 67 55 -1 55 56 68 -1 69 68 56 -1 56 57 69 -1 70 69 57 -1 57 58 70 -1 71 70 58 -1 58 59 71 -1 60 71 59 -1 59 48 60 -1 73 72 60 -1 60 61 73 -1 74 73 61 -1 61 62 74 -1 75 74 62 -1 62 63 75 -1 76 75 63 -1 63 64 76 -1 77 76 64 -1 64 65 77 -1 78 77 65 -1 65 66 78 -1 79 78 66 -1 66 67 79 -1 80 79 67 -1 67 68 80 -1 81 80 68 -1 68 69 81 -1 82 81 69 -1 69 70 82 -1 83 82 70 -1 70 71 83 -1 72 83 71 -1 71 60 72 -1 85 84 72 -1 72 73 85 -1 86 85 73 -1 73 74 86 -1 87 86 74 -1 74 75 87 -1 88 87 75 -1 75 76 88 -1 89 88 76 -1 76 77 89 -1 90 89 77 -1 77 78 90 -1 91 90 78 -1 78 79 91 -1 92 91 79 -1 79 80 92 -1 93 92 80 -1 80 81 93 -1 94 93 81 -1 81 82 94 -1 95 94 82 -1 82 83 95 -1 84 95 83 -1 83 72 84 -1 97 96 84 -1 84 85 97 -1 98 97 85 -1 85 86 98 -1 99 98 86 -1 86 87 99 -1 100 99 87 -1 87 88 100 -1 101 100 88 -1 88 89 101 -1 102 101 89 -1 89 90 102 -1 103 102 90 -1 90 91 103 -1 104 103 91 -1 91 92 104 -1 105 104 92 -1 92 93 105 -1 106 105 93 -1 93 94 106 -1 107 106 94 -1 94 95 107 -1 96 107 95 -1 95 84 96 -1 109 108 96 -1 96 97 109 -1 110 109 97 -1 97 98 110 -1 111 110 98 -1 98 99 111 -1 112 111 99 -1 99 100 112 -1 113 112 100 -1 100 101 113 -1 114 113 101 -1 101 102 114 -1 115 114 102 -1 102 103 115 -1 116 115 103 -1 103 104 116 -1 117 116 104 -1 104 105 117 -1 118 117 105 -1 105 106 118 -1 119 118 106 -1 106 107 119 -1 108 119 107 -1 107 96 108 -1 121 120 108 -1 108 109 121 -1 122 121 109 -1 109 110 122 -1 123 122 110 -1 110 111 123 -1 124 123 111 -1 111 112 124 -1 125 124 112 -1 112 113 125 -1 126 125 113 -1 113 114 126 -1 127 126 114 -1 114 115 127 -1 128 127 115 -1 115 116 128 -1 129 128 116 -1 116 117 129 -1 130 129 117 -1 117 118 130 -1 131 130 118 -1 118 119 131 -1 120 131 119 -1 119 108 120 -1 133 132 120 -1 120 121 133 -1 134 133 121 -1 121 122 134 -1 135 134 122 -1 122 123 135 -1 136 135 123 -1 123 124 136 -1 137 136 124 -1 124 125 137 -1 138 137 125 -1 125 126 138 -1 139 138 126 -1 126 127 139 -1 140 139 127 -1 127 128 140 -1 141 140 128 -1 128 129 141 -1 142 141 129 -1 129 130 142 -1 143 142 130 -1 130 131 143 -1 132 143 131 -1 131 120 132 -1 145 144 132 -1 132 133 145 -1 146 145 133 -1 133 134 146 -1 147 146 134 -1 134 135 147 -1 148 147 135 -1 135 136 148 -1 149 148 136 -1 136 137 149 -1 150 149 137 -1 137 138 150 -1 151 150 138 -1 138 139 151 -1 152 151 139 -1 139 140 152 -1 153 152 140 -1 140 141 153 -1 154 153 141 -1 141 142 154 -1 155 154 142 -1 142 143 155 -1 144 155 143 -1 143 132 144 -1 157 156 144 -1 144 145 157 -1 158 157 145 -1 145 146 158 -1 159 158 146 -1 146 147 159 -1 160 159 147 -1 147 148 160 -1 161 160 148 -1 148 149 161 -1 162 161 149 -1 149 150 162 -1 163 162 150 -1 150 151 163 -1 164 163 151 -1 151 152 164 -1 165 164 152 -1 152 153 165 -1 166 165 153 -1 153 154 166 -1 167 166 154 -1 154 155 167 -1 156 167 155 -1 155 144 156 -1 169 168 156 -1 156 157 169 -1 170 169 157 -1 157 158 170 -1 171 170 158 -1 158 159 171 -1 172 171 159 -1 159 160 172 -1 173 172 160 -1 160 161 173 -1 174 173 161 -1 161 162 174 -1 175 174 162 -1 162 163 175 -1 176 175 163 -1 163 164 176 -1 177 176 164 -1 164 165 177 -1 178 177 165 -1 165 166 178 -1 179 178 166 -1 166 167 179 -1 168 179 167 -1 167 156 168 -1 181 180 168 -1 168 169 181 -1 182 181 169 -1 169 170 182 -1 183 182 170 -1 170 171 183 -1 184 183 171 -1 171 172 184 -1 185 184 172 -1 172 173 185 -1 186 185 173 -1 173 174 186 -1 187 186 174 -1 174 175 187 -1 188 187 175 -1 175 176 188 -1 189 188 176 -1 176 177 189 -1 190 189 177 -1 177 178 190 -1 191 190 178 -1 178 179 191 -1 180 191 179 -1 179 168 180 -1 193 192 180 -1 180 181 193 -1 194 193 181 -1 181 182 194 -1 195 194 182 -1 182 183 195 -1 196 195 183 -1 183 184 196 -1 197 196 184 -1 184 185 197 -1 198 197 185 -1 185 186 198 -1 199 198 186 -1 186 187 199 -1 200 199 187 -1 187 188 200 -1 201 200 188 -1 188 189 201 -1 202 201 189 -1 189 190 202 -1 203 202 190 -1 190 191 203 -1 192 203 191 -1 191 180 192 -1 205 204 192 -1 192 193 205 -1 206 205 193 -1 193 194 206 -1 207 206 194 -1 194 195 207 -1 208 207 195 -1 195 196 208 -1 209 208 196 -1 196 197 209 -1 210 209 197 -1 197 198 210 -1 211 210 198 -1 198 199 211 -1 212 211 199 -1 199 200 212 -1 213 212 200 -1 200 201 213 -1 214 213 201 -1 201 202 214 -1 215 214 202 -1 202 203 215 -1 204 215 203 -1 203 192 204 -1 217 216 204 -1 204 205 217 -1 218 217 205 -1 205 206 218 -1 219 218 206 -1 206 207 219 -1 220 219 207 -1 207 208 220 -1 221 220 208 -1 208 209 221 -1 222 221 209 -1 209 210 222 -1 223 222 210 -1 210 211 223 -1 224 223 211 -1 211 212 224 -1 225 224 212 -1 212 213 225 -1 226 225 213 -1 213 214 226 -1 227 226 214 -1 214 215 227 -1 216 227 215 -1 215 204 216 -1 229 228 216 -1 216 217 229 -1 230 229 217 -1 217 218 230 -1 231 230 218 -1 218 219 231 -1 232 231 219 -1 219 220 232 -1 233 232 220 -1 220 221 233 -1 234 233 221 -1 221 222 234 -1 235 234 222 -1 222 223 235 -1 236 235 223 -1 223 224 236 -1 237 236 224 -1 224 225 237 -1 238 237 225 -1 225 226 238 -1 239 238 226 -1 226 227 239 -1 228 239 227 -1 227 216 228 -1 241 240 228 -1 228 229 241 -1 242 241 229 -1 229 230 242 -1 243 242 230 -1 230 231 243 -1 244 243 231 -1 231 232 244 -1 245 244 232 -1 232 233 245 -1 246 245 233 -1 233 234 246 -1 247 246 234 -1 234 235 247 -1 248 247 235 -1 235 236 248 -1 249 248 236 -1 236 237 249 -1 250 249 237 -1 237 238 250 -1 251 250 238 -1 238 239 251 -1 240 251 239 -1 239 228 240 -1 253 252 240 -1 240 241 253 -1 254 253 241 -1 241 242 254 -1 255 254 242 -1 242 243 255 -1 256 255 243 -1 243 244 256 -1 257 256 244 -1 244 245 257 -1 258 257 245 -1 245 246 258 -1 259 258 246 -1 246 247 259 -1 260 259 247 -1 247 248 260 -1 261 260 248 -1 248 249 261 -1 262 261 249 -1 249 250 262 -1 263 262 250 -1 250 251 263 -1 252 263 251 -1 251 240 252 -1 265 264 252 -1 252 253 265 -1 266 265 253 -1 253 254 266 -1 267 266 254 -1 254 255 267 -1 268 267 255 -1 255 256 268 -1 269 268 256 -1 256 257 269 -1 270 269 257 -1 257 258 270 -1 271 270 258 -1 258 259 271 -1 272 271 259 -1 259 260 272 -1 273 272 260 -1 260 261 273 -1 274 273 261 -1 261 262 274 -1 275 274 262 -1 262 263 275 -1 264 275 263 -1 263 252 264 -1 277 276 264 -1 264 265 277 -1 278 277 265 -1 265 266 278 -1 279 278 266 -1 266 267 279 -1 280 279 267 -1 267 268 280 -1 281 280 268 -1 268 269 281 -1 282 281 269 -1 269 270 282 -1 283 282 270 -1 270 271 283 -1 284 283 271 -1 271 272 284 -1 285 284 272 -1 272 273 285 -1 286 285 273 -1 273 274 286 -1 287 286 274 -1 274 275 287 -1 276 287 275 -1 275 264 276 -1 289 288 276 -1 276 277 289 -1 290 289 277 -1 277 278 290 -1 291 290 278 -1 278 279 291 -1 292 291 279 -1 279 280 292 -1 293 292 280 -1 280 281 293 -1 294 293 281 -1 281 282 294 -1 295 294 282 -1 282 283 295 -1 296 295 283 -1 283 284 296 -1 297 296 284 -1 284 285 297 -1 298 297 285 -1 285 286 298 -1 299 298 286 -1 286 287 299 -1 288 299 287 -1 287 276 288 -1 301 300 288 -1 288 289 301 -1 302 301 289 -1 289 290 302 -1 303 302 290 -1 290 291 303 -1 304 303 291 -1 291 292 304 -1 305 304 292 -1 292 293 305 -1 306 305 293 -1 293 294 306 -1 307 306 294 -1 294 295 307 -1 308 307 295 -1 295 296 308 -1 309 308 296 -1 296 297 309 -1 310 309 297 -1 297 298 310 -1 311 310 298 -1 298 299 311 -1 300 311 299 -1 299 288 300 -1 313 312 300 -1 300 301 313 -1 314 313 301 -1 301 302 314 -1 315 314 302 -1 302 303 315 -1 316 315 303 -1 303 304 316 -1 317 316 304 -1 304 305 317 -1 318 317 305 -1 305 306 318 -1 319 318 306 -1 306 307 319 -1 320 319 307 -1 307 308 320 -1 321 320 308 -1 308 309 321 -1 322 321 309 -1 309 310 322 -1 323 322 310 -1 310 311 323 -1 312 323 311 -1 311 300 312 -1 325 324 312 -1 312 313 325 -1 326 325 313 -1 313 314 326 -1 327 326 314 -1 314 315 327 -1 328 327 315 -1 315 316 328 -1 329 328 316 -1 316 317 329 -1 330 329 317 -1 317 318 330 -1 331 330 318 -1 318 319 331 -1 332 331 319 -1 319 320 332 -1 333 332 320 -1 320 321 333 -1 334 333 321 -1 321 322 334 -1 335 334 322 -1 322 323 335 -1 324 335 323 -1 323 312 324 -1 337 336 324 -1 324 325 337 -1 338 337 325 -1 325 326 338 -1 339 338 326 -1 326 327 339 -1 340 339 327 -1 327 328 340 -1 341 340 328 -1 328 329 341 -1 342 341 329 -1 329 330 342 -1 343 342 330 -1 330 331 343 -1 344 343 331 -1 331 332 344 -1 345 344 332 -1 332 333 345 -1 346 345 333 -1 333 334 346 -1 347 346 334 -1 334 335 347 -1 336 347 335 -1 335 324 336 -1 349 348 336 -1 336 337 349 -1 350 349 337 -1 337 338 350 -1 351 350 338 -1 338 339 351 -1 352 351 339 -1 339 340 352 -1 353 352 340 -1 340 341 353 -1 354 353 341 -1 341 342 354 -1 355 354 342 -1 342 343 355 -1 356 355 343 -1 343 344 356 -1 357 356 344 -1 344 345 357 -1 358 357 345 -1 345 346 358 -1 359 358 346 -1 346 347 359 -1 348 359 347 -1 347 336 348 -1 361 360 348 -1 348 349 361 -1 362 361 349 -1 349 350 362 -1 363 362 350 -1 350 351 363 -1 364 363 351 -1 351 352 364 -1 365 364 352 -1 352 353 365 -1 366 365 353 -1 353 354 366 -1 367 366 354 -1 354 355 367 -1 368 367 355 -1 355 356 368 -1 369 368 356 -1 356 357 369 -1 370 369 357 -1 357 358 370 -1 371 370 358 -1 358 359 371 -1 360 371 359 -1 359 348 360 -1 373 372 360 -1 360 361 373 -1 374 373 361 -1 361 362 374 -1 375 374 362 -1 362 363 375 -1 376 375 363 -1 363 364 376 -1 377 376 364 -1 364 365 377 -1 378 377 365 -1 365 366 378 -1 379 378 366 -1 366 367 379 -1 380 379 367 -1 367 368 380 -1 381 380 368 -1 368 369 381 -1 382 381 369 -1 369 370 382 -1 383 382 370 -1 370 371 383 -1 372 383 371 -1 371 360 372 -1 385 384 372 -1 372 373 385 -1 386 385 373 -1 373 374 386 -1 387 386 374 -1 374 375 387 -1 388 387 375 -1 375 376 388 -1 389 388 376 -1 376 377 389 -1 390 389 377 -1 377 378 390 -1 391 390 378 -1 378 379 391 -1 392 391 379 -1 379 380 392 -1 393 392 380 -1 380 381 393 -1 394 393 381 -1 381 382 394 -1 395 394 382 -1 382 383 395 -1 384 395 383 -1 383 372 384 -1 397 396 384 -1 384 385 397 -1 398 397 385 -1 385 386 398 -1 399 398 386 -1 386 387 399 -1 400 399 387 -1 387 388 400 -1 401 400 388 -1 388 389 401 -1 402 401 389 -1 389 390 402 -1 403 402 390 -1 390 391 403 -1 404 403 391 -1 391 392 404 -1 405 404 392 -1 392 393 405 -1 406 405 393 -1 393 394 406 -1 407 406 394 -1 394 395 407 -1 396 407 395 -1 395 384 396 -1 409 408 396 -1 396 397 409 -1 410 409 397 -1 397 398 410 -1 411 410 398 -1 398 399 411 -1 412 411 399 -1 399 400 412 -1 413 412 400 -1 400 401 413 -1 414 413 401 -1 401 402 414 -1 415 414 402 -1 402 403 415 -1 416 415 403 -1 403 404 416 -1 417 416 404 -1 404 405 417 -1 418 417 405 -1 405 406 418 -1 419 418 406 -1 406 407 419 -1 408 419 407 -1 407 396 408 -1 421 420 408 -1 408 409 421 -1 422 421 409 -1 409 410 422 -1 423 422 410 -1 410 411 423 -1 424 423 411 -1 411 412 424 -1 425 424 412 -1 412 413 425 -1 426 425 413 -1 413 414 426 -1 427 426 414 -1 414 415 427 -1 428 427 415 -1 415 416 428 -1 429 428 416 -1 416 417 429 -1 430 429 417 -1 417 418 430 -1 431 430 418 -1 418 419 431 -1 420 431 419 -1 419 408 420 -1 433 432 420 -1 420 421 433 -1 434 433 421 -1 421 422 434 -1 435 434 422 -1 422 423 435 -1 436 435 423 -1 423 424 436 -1 437 436 424 -1 424 425 437 -1 438 437 425 -1 425 426 438 -1 439 438 426 -1 426 427 439 -1 440 439 427 -1 427 428 440 -1 441 440 428 -1 428 429 441 -1 442 441 429 -1 429 430 442 -1 443 442 430 -1 430 431 443 -1 432 443 431 -1 431 420 432 -1 445 444 432 -1 432 433 445 -1 446 445 433 -1 433 434 446 -1 447 446 434 -1 434 435 447 -1 448 447 435 -1 435 436 448 -1 449 448 436 -1 436 437 449 -1 450 449 437 -1 437 438 450 -1 451 450 438 -1 438 439 451 -1 452 451 439 -1 439 440 452 -1 453 452 440 -1 440 441 453 -1 454 453 441 -1 441 442 454 -1 455 454 442 -1 442 443 455 -1 444 455 443 -1 443 432 444 -1 457 456 444 -1 444 445 457 -1 458 457 445 -1 445 446 458 -1 459 458 446 -1 446 447 459 -1 460 459 447 -1 447 448 460 -1 461 460 448 -1 448 449 461 -1 462 461 449 -1 449 450 462 -1 463 462 450 -1 450 451 463 -1 464 463 451 -1 451 452 464 -1 465 464 452 -1 452 453 465 -1 466 465 453 -1 453 454 466 -1 467 466 454 -1 454 455 467 -1 456 467 455 -1 455 444 456 -1 469 468 456 -1 456 457 469 -1 470 469 457 -1 457 458 470 -1 471 470 458 -1 458 459 471 -1 472 471 459 -1 459 460 472 -1 473 472 460 -1 460 461 473 -1 474 473 461 -1 461 462 474 -1 475 474 462 -1 462 463 475 -1 476 475 463 -1 463 464 476 -1 477 476 464 -1 464 465 477 -1 478 477 465 -1 465 466 478 -1 479 478 466 -1 466 467 479 -1 468 479 467 -1 467 456 468 -1 481 480 468 -1 468 469 481 -1 482 481 469 -1 469 470 482 -1 483 482 470 -1 470 471 483 -1 484 483 471 -1 471 472 484 -1 485 484 472 -1 472 473 485 -1 486 485 473 -1 473 474 486 -1 487 486 474 -1 474 475 487 -1 488 487 475 -1 475 476 488 -1 489 488 476 -1 476 477 489 -1 490 489 477 -1 477 478 490 -1 491 490 478 -1 478 479 491 -1 480 491 479 -1 479 468 480 -1 493 492 480 -1 480 481 493 -1 494 493 481 -1 481 482 494 -1 495 494 482 -1 482 483 495 -1 496 495 483 -1 483 484 496 -1 497 496 484 -1 484 485 497 -1 498 497 485 -1 485 486 498 -1 499 498 486 -1 486 487 499 -1 500 499 487 -1 487 488 500 -1 501 500 488 -1 488 489 501 -1 502 501 489 -1 489 490 502 -1 503 502 490 -1 490 491 503 -1 492 503 491 -1 491 480 492 -1 505 504 492 -1 492 493 505 -1 506 505 493 -1 493 494 506 -1 507 506 494 -1 494 495 507 -1 508 507 495 -1 495 496 508 -1 509 508 496 -1 496 497 509 -1 510 509 497 -1 497 498 510 -1 511 510 498 -1 498 499 511 -1 512 511 499 -1 499 500 512 -1 513 512 500 -1 500 501 513 -1 514 513 501 -1 501 502 514 -1 515 514 502 -1 502 503 515 -1 504 515 503 -1 503 492 504 -1 517 516 504 -1 504 505 517 -1 518 517 505 -1 505 506 518 -1 519 518 506 -1 506 507 519 -1 520 519 507 -1 507 508 520 -1 521 520 508 -1 508 509 521 -1 522 521 509 -1 509 510 522 -1 523 522 510 -1 510 511 523 -1 524 523 511 -1 511 512 524 -1 525 524 512 -1 512 513 525 -1 526 525 513 -1 513 514 526 -1 527 526 514 -1 514 515 527 -1 516 527 515 -1 515 504 516 -1 529 528 516 -1 516 517 529 -1 530 529 517 -1 517 518 530 -1 531 530 518 -1 518 519 531 -1 532 531 519 -1 519 520 532 -1 533 532 520 -1 520 521 533 -1 534 533 521 -1 521 522 534 -1 535 534 522 -1 522 523 535 -1 536 535 523 -1 523 524 536 -1 537 536 524 -1 524 525 537 -1 538 537 525 -1 525 526 538 -1 539 538 526 -1 526 527 539 -1 528 539 527 -1 527 516 528 -1 541 540 528 -1 528 529 541 -1 542 541 529 -1 529 530 542 -1 543 542 530 -1 530 531 543 -1 544 543 531 -1 531 532 544 -1 545 544 532 -1 532 533 545 -1 546 545 533 -1 533 534 546 -1 547 546 534 -1 534 535 547 -1 548 547 535 -1 535 536 548 -1 549 548 536 -1 536 537 549 -1 550 549 537 -1 537 538 550 -1 551 550 538 -1 538 539 551 -1 540 551 539 -1 539 528 540 -1 553 552 540 -1 540 541 553 -1 554 553 541 -1 541 542 554 -1 555 554 542 -1 542 543 555 -1 556 555 543 -1 543 544 556 -1 557 556 544 -1 544 545 557 -1 558 557 545 -1 545 546 558 -1 559 558 546 -1 546 547 559 -1 560 559 547 -1 547 548 560 -1 561 560 548 -1 548 549 561 -1 562 561 549 -1 549 550 562 -1 563 562 550 -1 550 551 563 -1 552 563 551 -1 551 540 552 -1 565 564 552 -1 552 553 565 -1 566 565 553 -1 553 554 566 -1 567 566 554 -1 554 555 567 -1 568 567 555 -1 555 556 568 -1 569 568 556 -1 556 557 569 -1 570 569 557 -1 557 558 570 -1 571 570 558 -1 558 559 571 -1 572 571 559 -1 559 560 572 -1 573 572 560 -1 560 561 573 -1 574 573 561 -1 561 562 574 -1 575 574 562 -1 562 563 575 -1 564 575 563 -1 563 552 564 -1 577 576 564 -1 564 565 577 -1 578 577 565 -1 565 566 578 -1 579 578 566 -1 566 567 579 -1 580 579 567 -1 567 568 580 -1 581 580 568 -1 568 569 581 -1 582 581 569 -1 569 570 582 -1 583 582 570 -1 570 571 583 -1 584 583 571 -1 571 572 584 -1 585 584 572 -1 572 573 585 -1 586 585 573 -1 573 574 586 -1 587 586 574 -1 574 575 587 -1 576 587 575 -1 575 564 576 -1 576 577 589 -1 577 578 589 -1 578 579 589 -1 579 580 589 -1 580 581 589 -1 581 582 589 -1 582 583 589 -1 583 584 589 -1 584 585 589 -1 585 586 589 -1 586 587 589 -1 587 576 589 -1'>
                <Coordinate DEF='Hose01-COORD' point='0.0346 0 -0.02 0.02 0 -0.0346 0 0 -0.04 -0.02 0 -0.0346 -0.0346 0 -0.02 -0.04 0 0 -0.0346 0 0.02 -0.02 0 0.0346 0 0 0.04 0.02 0 0.0346 0.0346 0 0.02 0.04 0 0 0.0347 0.0162 -0.02 0.0201 0.0164 -0.0346 0.000108 0.0167 -0.04 -0.0199 0.0169 -0.0346 -0.0345 0.0171 -0.02 -0.0398 0.0172 0 -0.0345 0.0171 0.02 -0.0199 0.0169 0.0346 0.000108 0.0167 0.04 0.0201 0.0164 0.0346 0.0347 0.0162 0.02 0.0401 0.0162 0 0.0247 0.0327 -0.014 0.0144 0.033 -0.0243 0.00043 0.0333 -0.028 -0.0136 0.0337 -0.0243 -0.0238 0.034 -0.014 -0.0276 0.0341 0 -0.0238 0.034 0.014 -0.0136 0.0337 0.0243 0.00043 0.0333 0.028 0.0144 0.033 0.0243 0.0247 0.0327 0.014 0.0285 0.0326 0 0.0355 0.0486 -0.02 0.0209 0.0492 -0.0346 0.000968 0.05 -0.04 -0.019 0.0508 -0.0346 -0.0336 0.0513 -0.02 -0.039 0.0515 0 -0.0336 0.0513 0.02 -0.019 0.0508 0.0346 0.000968 0.05 0.04 0.0209 0.0492 0.0346 0.0355 0.0486 0.02 0.0409 0.0484 0 0.026 0.0654 -0.014 0.0157 0.0659 -0.0243 0.00172 0.0666 -0.028 -0.0123 0.0674 -0.0243 -0.0225 0.0679 -0.014 -0.0263 0.0681 0 -0.0225 0.0679 0.014 -0.0123 0.0674 0.0243 0.00172 0.0666 0.028 0.0157 0.0659 0.0243 0.026 0.0654 0.014 0.0297 0.0652 0 0.0372 0.081 -0.02 0.0226 0.082 -0.0346 0.00269 0.0833 -0.04 -0.0173 0.0846 -0.0346 -0.0319 0.0855 -0.02 -0.0372 0.0859 0 -0.0319 0.0855 0.02 -0.0173 0.0846 0.0346 0.00269 0.0833 0.04 0.0226 0.082 0.0346 0.0372 0.081 0.02 0.0426 0.0807 0 0.0281 0.098 -0.014 0.0178 0.0988 -0.0243 0.00387 0.0999 -0.028 -0.0101 0.101 -0.0243 -0.0203 0.102 -0.014 -0.0241 0.102 0 -0.0203 0.102 0.014 -0.0101 0.101 0.0243 0.00387 0.0999 0.028 0.0178 0.0988 0.0243 0.0281 0.098 0.014 0.0318 0.0977 0 0.0397 0.113 -0.02 0.0252 0.115 -0.0346 0.00527 0.117 -0.04 -0.0146 0.118 -0.0346 -0.0292 0.12 -0.02 -0.0345 0.12 0 -0.0292 0.12 0.02 -0.0146 0.118 0.0346 0.00527 0.117 0.04 0.0252 0.115 0.0346 0.0397 0.113 0.02 0.0451 0.113 0 0.031 0.131 -0.014 0.0208 0.132 -0.0243 0.00688 0.133 -0.028 -0.00706 0.135 -0.0243 -0.0173 0.136 -0.014 -0.021 0.136 0 -0.0173 0.136 0.014 -0.00706 0.135 0.0243 0.00688 0.133 0.028 0.0208 0.132 0.0243 0.031 0.131 0.014 0.0348 0.13 0 0.0431 0.146 -0.02 0.0286 0.147 -0.0346 0.0087 0.15 -0.04 -0.0112 0.152 -0.0346 -0.0257 0.154 -0.02 -0.031 0.154 0 -0.0257 0.154 0.02 -0.0112 0.152 0.0346 0.0087 0.15 0.04 0.0286 0.147 0.0346 0.0431 0.146 0.02 0.0484 0.145 0 0.0348 0.163 -0.014 0.0246 0.164 -0.0243 0.0107 0.166 -0.028 -0.00315 0.168 -0.0243 -0.0133 0.169 -0.014 -0.017 0.17 0 -0.0133 0.169 0.014 -0.00315 0.168 0.0243 0.0107 0.166 0.028 0.0246 0.164 0.0243 0.0348 0.163 0.014 0.0385 0.163 0 0.0473 0.178 -0.02 0.0328 0.18 -0.0346 0.013 0.183 -0.04 -0.0068 0.186 -0.0346 -0.0213 0.188 -0.02 -0.0266 0.188 0 -0.0213 0.188 0.02 -0.0068 0.186 0.0346 0.013 0.183 0.04 0.0328 0.18 0.0346 0.0473 0.178 0.02 0.0526 0.177 0 0.0394 0.195 -0.014 0.0293 0.197 -0.0243 0.0155 0.199 -0.028 0.00162 0.201 -0.0243 -0.00851 0.203 -0.014 -0.0122 0.204 0 -0.00851 0.203 0.014 0.00162 0.201 0.0243 0.0155 0.199 0.028 0.0293 0.197 0.0243 0.0394 0.195 0.014 0.0431 0.195 0 0.0523 0.21 -0.02 0.0379 0.212 -0.0346 0.0181 0.216 -0.04 -0.00158 0.219 -0.0346 -0.016 0.221 -0.02 -0.0213 0.222 0 -0.016 0.221 0.02 -0.00158 0.219 0.0346 0.0181 0.216 0.04 0.0379 0.212 0.0346 0.0523 0.21 0.02 0.0576 0.209 0 0.0449 0.228 -0.014 0.0348 0.23 -0.0243 0.021 0.232 -0.028 0.00725 0.235 -0.0243 -0.00284 0.236 -0.014 -0.00653 0.237 0 -0.00284 0.236 0.014 0.00725 0.235 0.0243 0.021 0.232 0.028 0.0348 0.23 0.0243 0.0449 0.228 0.014 0.0486 0.227 0 0.0581 0.242 -0.02 0.0438 0.245 -0.0346 0.0241 0.248 -0.04 0.0045 0.252 -0.0346 -0.00986 0.255 -0.02 -0.0151 0.256 0 -0.00986 0.255 0.02 0.0045 0.252 0.0346 0.0241 0.248 0.04 0.0438 0.245 0.0346 0.0581 0.242 0.02 0.0634 0.241 0 0.0512 0.26 -0.014 0.0411 0.262 -0.0243 0.0274 0.265 -0.028 0.0137 0.268 -0.0243 0.0037 0.27 -0.014 2.91e-005 0.271 0 0.0037 0.27 0.014 0.0137 0.268 0.0243 0.0274 0.265 0.028 0.0411 0.262 0.0243 0.0512 0.26 0.014 0.0549 0.259 0 0.0648 0.274 -0.02 0.0505 0.277 -0.0346 0.031 0.281 -0.04 0.0114 0.285 -0.0346 -0.00284 0.289 -0.02 -0.00807 0.29 0 -0.00284 0.289 0.02 0.0114 0.285 0.0346 0.031 0.281 0.04 0.0505 0.277 0.0346 0.0648 0.274 0.02 0.07 0.272 0 0.0583 0.292 -0.014 0.0483 0.294 -0.0243 0.0347 0.297 -0.028 0.0211 0.301 -0.0243 0.0111 0.303 -0.014 0.00744 0.304 0 0.0111 0.303 0.014 0.0211 0.301 0.0243 0.0347 0.297 0.028 0.0483 0.294 0.0243 0.0583 0.292 0.014 0.0619 0.291 0 0.0722 0.305 -0.02 0.058 0.309 -0.0346 0.0386 0.314 -0.04 0.0192 0.318 -0.0346 0.00504 0.322 -0.02 -0.000163 0.323 0 0.00504 0.322 0.02 0.0192 0.318 0.0346 0.0386 0.314 0.04 0.058 0.309 0.0346 0.0722 0.305 0.02 0.0774 0.304 0 0.0662 0.323 -0.014 0.0563 0.326 -0.0242 0.0428 0.33 -0.028 0.0293 0.333 -0.0242 0.0193 0.336 -0.014 0.0157 0.337 0 0.0193 0.336 0.014 0.0293 0.333 0.0242 0.0428 0.33 0.028 0.0563 0.326 0.0242 0.0662 0.323 0.014 0.0699 0.322 0 0.0805 0.336 -0.02 0.0664 0.34 -0.0346 0.0471 0.346 -0.04 0.0279 0.351 -0.0346 0.0138 0.355 -0.02 0.00861 0.356 0 0.0138 0.355 0.02 0.0279 0.351 0.0346 0.0471 0.346 0.04 0.0664 0.34 0.0346 0.0805 0.336 0.02 0.0857 0.335 0 0.075 0.355 -0.014 0.0652 0.358 -0.0242 0.0517 0.362 -0.028 0.0383 0.366 -0.0242 0.0284 0.369 -0.014 0.0248 0.37 0 0.0284 0.369 0.014 0.0383 0.366 0.0242 0.0517 0.362 0.028 0.0652 0.358 0.0242 0.075 0.355 0.014 0.0786 0.354 0 0.0896 0.368 -0.02 0.0756 0.372 -0.0346 0.0565 0.378 -0.04 0.0374 0.384 -0.0346 0.0234 0.388 -0.02 0.0182 0.389 0 0.0234 0.388 0.02 0.0374 0.384 0.0346 0.0565 0.378 0.04 0.0756 0.372 0.0346 0.0896 0.368 0.02 0.0947 0.366 0 0.0846 0.386 -0.014 0.0748 0.389 -0.0242 0.0615 0.394 -0.028 0.0481 0.398 -0.0242 0.0384 0.401 -0.014 0.0348 0.402 0 0.0384 0.401 0.014 0.0481 0.398 0.0242 0.0615 0.394 0.028 0.0748 0.389 0.0242 0.0846 0.386 0.014 0.0881 0.385 0 0.0995 0.398 -0.02 0.0856 0.403 -0.0346 0.0666 0.409 -0.04 0.0477 0.416 -0.0346 0.0338 0.42 -0.02 0.0287 0.422 0 0.0338 0.42 0.02 0.0477 0.416 0.0346 0.0666 0.409 0.04 0.0856 0.403 0.0346 0.0995 0.398 0.02 0.105 0.397 0 0.0949 0.417 -0.014 0.0853 0.421 -0.0242 0.072 0.425 -0.028 0.0588 0.43 -0.0242 0.0491 0.433 -0.014 0.0456 0.434 0 0.0491 0.433 0.014 0.0588 0.43 0.0242 0.072 0.425 0.028 0.0853 0.421 0.0242 0.0949 0.417 0.014 0.0985 0.416 0 0.11 0.429 -0.02 0.0964 0.434 -0.0346 0.0776 0.441 -0.04 0.0588 0.448 -0.0346 0.0451 0.453 -0.02 0.04 0.455 0 0.0451 0.453 0.02 0.0588 0.448 0.0346 0.0776 0.441 0.04 0.0964 0.434 0.0346 0.11 0.429 0.02 0.115 0.427 0 0.106 0.448 -0.014 0.0965 0.452 -0.0242 0.0834 0.457 -0.028 0.0703 0.462 -0.0242 0.0607 0.465 -0.014 0.0572 0.466 0 0.0607 0.465 0.014 0.0703 0.462 0.0242 0.0834 0.457 0.028 0.0965 0.452 0.0242 0.106 0.448 0.014 0.11 0.447 0 0.122 0.459 -0.02 0.108 0.465 -0.0346 0.0894 0.472 -0.04 0.0708 0.479 -0.0346 0.0572 0.485 -0.02 0.0522 0.487 0 0.0572 0.485 0.02 0.0708 0.479 0.0346 0.0894 0.472 0.04 0.108 0.465 0.0346 0.122 0.459 0.02 0.127 0.457 0 0.118 0.478 -0.014 0.109 0.482 -0.0243 0.0956 0.488 -0.028 0.0826 0.493 -0.0243 0.0732 0.497 -0.014 0.0697 0.498 0 0.0732 0.497 0.014 0.0826 0.493 0.0243 0.0956 0.488 0.028 0.109 0.482 0.0243 0.118 0.478 0.014 0.122 0.477 0 0.134 0.489 -0.02 0.12 0.495 -0.0346 0.102 0.503 -0.04 0.0836 0.511 -0.0346 0.0701 0.516 -0.02 0.0652 0.519 0 0.0701 0.516 0.02 0.0836 0.511 0.0346 0.102 0.503 0.04 0.12 0.495 0.0346 0.134 0.489 0.02 0.139 0.487 0 0.131 0.509 -0.014 0.121 0.513 -0.0243 0.109 0.518 -0.028 0.0958 0.524 -0.0243 0.0864 0.528 -0.014 0.0829 0.53 0 0.0864 0.528 0.014 0.0958 0.524 0.0243 0.109 0.518 0.028 0.121 0.513 0.0243 0.131 0.509 0.014 0.134 0.507 0 0.147 0.519 -0.02 0.134 0.525 -0.0346 0.115 0.534 -0.04 0.0972 0.542 -0.0346 0.0838 0.548 -0.02 0.079 0.55 0 0.0838 0.548 0.02 0.0972 0.542 0.0346 0.115 0.534 0.04 0.134 0.525 0.0346 0.147 0.519 0.02 0.152 0.517 0 0.144 0.538 -0.014 0.135 0.543 -0.0243 0.122 0.549 -0.028 0.11 0.555 -0.0243 0.1 0.559 -0.014 0.097 0.561 0 0.1 0.559 0.014 0.11 0.555 0.0243 0.122 0.549 0.028 0.135 0.543 0.0243 0.144 0.538 0.014 0.148 0.537 0 0.161 0.549 -0.02 0.148 0.555 -0.0346 0.13 0.564 -0.04 0.112 0.572 -0.0346 0.0984 0.579 -0.02 0.0936 0.581 0 0.0984 0.579 0.02 0.112 0.572 0.0346 0.13 0.564 0.04 0.148 0.555 0.0346 0.161 0.549 0.02 0.166 0.546 0 0.159 0.568 -0.014 0.149 0.572 -0.0243 0.137 0.579 -0.028 0.124 0.585 -0.0243 0.115 0.59 -0.014 0.112 0.591 0 0.115 0.59 0.014 0.124 0.585 0.0243 0.137 0.579 0.028 0.149 0.572 0.0243 0.159 0.568 0.014 0.162 0.566 0 0.175 0.578 -0.02 0.162 0.584 -0.0346 0.144 0.593 -0.04 0.127 0.603 -0.0346 0.114 0.609 -0.02 0.109 0.612 0 0.114 0.609 0.02 0.127 0.603 0.0346 0.144 0.593 0.04 0.162 0.584 0.0346 0.175 0.578 0.02 0.18 0.575 0 0.174 0.597 -0.014 0.165 0.602 -0.0243 0.152 0.608 -0.028 0.14 0.615 -0.0243 0.131 0.62 -0.014 0.128 0.621 0 0.131 0.62 0.014 0.14 0.615 0.0243 0.152 0.608 0.028 0.165 0.602 0.0243 0.174 0.597 0.014 0.177 0.595 0 0.191 0.606 -0.02 0.178 0.613 -0.0346 0.16 0.623 -0.04 0.143 0.633 -0.0346 0.13 0.64 -0.02 0.125 0.642 0 0.13 0.64 0.02 0.143 0.633 0.0346 0.16 0.623 0.04 0.178 0.613 0.0346 0.191 0.606 0.02 0.195 0.604 0 0.189 0.625 -0.014 0.181 0.631 -0.0243 0.168 0.637 -0.028 0.156 0.644 -0.0243 0.147 0.649 -0.014 0.144 0.651 0 0.147 0.649 0.014 0.156 0.644 0.0243 0.168 0.637 0.028 0.181 0.631 0.0243 0.189 0.625 0.014 0.193 0.624 0 0.207 0.634 -0.02 0.194 0.642 -0.0346 0.177 0.652 -0.04 0.159 0.662 -0.0346 0.147 0.669 -0.02 0.142 0.672 0 0.147 0.669 0.02 0.159 0.662 0.0346 0.177 0.652 0.04 0.194 0.642 0.0346 0.207 0.634 0.02 0.211 0.632 0 0.206 0.654 -0.014 0.197 0.659 -0.0243 0.185 0.666 -0.028 0.173 0.673 -0.0243 0.164 0.679 -0.014 0.161 0.681 0 0.164 0.679 0.014 0.173 0.673 0.0243 0.185 0.666 0.028 0.197 0.659 0.0243 0.206 0.654 0.014 0.209 0.652 0 0.223 0.662 -0.02 0.211 0.67 -0.0346 0.194 0.68 -0.04 0.177 0.691 -0.0346 0.164 0.699 -0.02 0.16 0.701 0 0.164 0.699 0.02 0.177 0.691 0.0346 0.194 0.68 0.04 0.211 0.67 0.0346 0.223 0.662 0.02 0.228 0.659 0 0.223 0.681 -0.014 0.215 0.687 -0.0243 0.203 0.695 -0.028 0.191 0.702 -0.0243 0.182 0.708 -0.014 0.179 0.71 0 0.182 0.708 0.014 0.191 0.702 0.0243 0.203 0.695 0.028 0.215 0.687 0.0243 0.223 0.681 0.014 0.226 0.679 0 0.241 0.69 -0.02 0.228 0.698 -0.0346 0.212 0.709 -0.04 0.195 0.719 -0.0346 0.183 0.728 -0.02 0.178 0.73 0 0.183 0.728 0.02 0.195 0.719 0.0346 0.212 0.709 0.04 0.228 0.698 0.0346 0.241 0.69 0.02 0.245 0.687 0 0.241 0.709 -0.014 0.233 0.715 -0.0243 0.221 0.722 -0.028 0.209 0.73 -0.0243 0.201 0.736 -0.014 0.198 0.738 0 0.201 0.736 0.014 0.209 0.73 0.0243 0.221 0.722 0.028 0.233 0.715 0.0243 0.241 0.709 0.014 0.244 0.707 0 0.259 0.716 -0.02 0.247 0.725 -0.0346 0.23 0.736 -0.04 0.214 0.748 -0.0346 0.202 0.756 -0.02 0.198 0.759 0 0.202 0.756 0.02 0.214 0.748 0.0346 0.23 0.736 0.04 0.247 0.725 0.0346 0.259 0.716 0.02 0.263 0.713 0 0.268 0.73 -0.02 0.256 0.738 -0.0346 0.24 0.75 -0.04 0.224 0.761 -0.0346 0.212 0.77 -0.02 0.207 0.773 0 0.212 0.77 0.02 0.224 0.761 0.0346 0.24 0.75 0.04 0.256 0.738 0.0346 0.268 0.73 0.02 0.273 0.727 0 0 0 0 0.24 0.75 0'/>
              </IndexedFaceSet>
            </Shape>
          </Transform>
        </Group>
        <Group DEF='srouby'>
          <Transform DEF='sroub_vyveva' translation='0.424 1.1 -0.397'>
            <Transform DEF='sroub' translation='0 0.0225 0'>
              <Shape>
                <Appearance USE='metalAP'/>
                <Cylinder height='0.045' radius='0.008'/>
              </Shape>
            </Transform>
          </Transform>
          <Transform DEF='sroub_vyveva01' translation='0.291 1.1 -0.397'>
            <Transform USE='sroub'/>
          </Transform>
          <Transform DEF='sroub_vyveva02' rotation='0 1 0 -1.57' translation='0.358 1.1 -0.331'>
            <Transform USE='sroub'/>
          </Transform>
          <Transform DEF='sroub_vyveva03' rotation='0 1 0 -1.57' translation='0.358 1.1 -0.464'>
            <Transform USE='sroub'/>
          </Transform>
          <Transform DEF='sroub_vyveva04' rotation='0 1 0 -1.57' translation='0.358 0.778 -0.464'>
            <Transform USE='sroub'/>
          </Transform>
          <Transform DEF='sroub_vyveva05' translation='0.291 0.778 -0.397'>
            <Transform USE='sroub'/>
          </Transform>
          <Transform DEF='sroub_vyveva06' rotation='0 1 0 -1.57' translation='0.358 0.778 -0.331'>
            <Transform translation='0 0.0425 0'>
              <Shape>
                <Appearance USE='metalAP'/>
                <Cylinder height='0.085' radius='0.01'/>
              </Shape>
            </Transform>
          </Transform>
          <Transform DEF='sroub_vyveva07' translation='0.424 0.778 -0.397'>
            <Transform translation='0 0.0425 0'>
              <Shape>
                <Appearance USE='metalAP'/>
                <Cylinder height='0.085' radius='0.01'/>
              </Shape>
            </Transform>
          </Transform>
          <Transform DEF='sroub_vyveva09' rotation='0.863 -0.357 -0.357 -1.72' translation='0.233 0.972 -0.398'>
            <Transform USE='sroub'/>
          </Transform>
          <Transform DEF='sroub_vyveva10' rotation='0.863 -0.357 -0.357 -1.72' translation='0.356 0.972 -0.521'>
            <Transform USE='sroub'/>
          </Transform>
          <Transform DEF='sroub_vyveva11' rotation='0.357 0.357 -0.863 -1.72' translation='0.295 1.06 -0.46'>
            <Transform USE='sroub'/>
          </Transform>
          <Transform DEF='sroub_vyveva12' rotation='0.357 0.357 -0.863 -1.72' translation='0.295 0.885 -0.46'>
            <Transform USE='sroub'/>
          </Transform>
          <Transform DEF='sroub_vyveva13' rotation='0.863 -0.357 -0.357 -1.72' translation='0.52 0.972 -0.361'>
            <Transform USE='sroub'/>
          </Transform>
          <Transform DEF='sroub_vyveva14' rotation='0.357 0.357 -0.863 -1.72' translation='0.458 0.885 -0.3'>
            <Transform USE='sroub'/>
          </Transform>
          <Transform DEF='sroub_vyveva15' rotation='0.863 -0.357 -0.357 -1.72' translation='0.396 0.972 -0.238'>
            <Transform USE='sroub'/>
          </Transform>
          <Transform DEF='sroub_vyveva16' rotation='0.357 0.357 -0.863 -1.72' translation='0.458 1.06 -0.3'>
            <Transform USE='sroub'/>
          </Transform>
        </Group>
      </Group>
      <Group USE='zaklad'/>
      <Group/>
    </LOD>
  </Scene>
</X3D>