<?xml version="1.0" encoding="UTF-8"?>
<!DOCTYPE X3D PUBLIC "ISO//Web3D//DTD X3D 3.0//EN" "http://www.web3d.org/specifications/x3d-3.0.dtd">
<X3D xmlns:xsd='http://www.w3.org/2001/XMLSchema-instance' profile='Full' version='3.0' xsd:noNamespaceSchemaLocation='http://www.web3d.org/specifications/x3d-3.0.xsd'>
  <Scene DEF='scene'>
    <WorldInfo info='"Author: Tatiana Okonechnikova"' title='tokamak'/>
  	<Group>
      <Transform translation='0 0.5 -1.3' rotation='0 -1 0 1.57'>

        <Switch whichChoice="0" id="switch-ring">
          <Transform scale="0.415 0.415 0.415" translation="-2.05 0.725 -0.8" rotation="0.6 0 0 1.57">
            <Inline DEF="ring" url="ring.x3d"></Inline>
          </Transform>
        </Switch>

        <!-- <Switch whichChoice="0" id="switch-ring">
          <Transform scale="0.4 0.4 0.4" translation="-1.968 0.725 -0.77" rotation="0.6 0 0 1.57">
            <Inline DEF="ring" url="ring.x3d"></Inline>
          </Transform>
        </Switch> -->

        <Switch whichChoice="0" id="switch-magelectrons">
          <Transform translation="0.34 -0.27 -0.06" rotation="0 0 0">
            <Inline DEF="magelectrons" url="magelectrons.x3d"></Inline>
          </Transform>
        </Switch>
  
       <Switch whichChoice="0" id="switch-magelectronses">
          <Transform translation="0.34 -0.3 -0.06" rotation="0 0 0">
            <Inline DEF="magelectronses" url="magelectronses.x3d"></Inline>
          </Transform>
        </Switch>

        <Switch whichChoice="0" id="switch-chamber">
          <Inline DEF="chamber" url='"chamber.x3d"'></Inline>
        </Switch>

        

        </Transform>
      </Group>
  </Scene>
</X3D>