<?xml version="1.0" encoding="UTF-8" standalone="no"?>
<!-- Created with Inkscape (http://www.inkscape.org/) -->

<svg
   xmlns:dc="http://purl.org/dc/elements/1.1/"
   xmlns:cc="http://creativecommons.org/ns#"
   xmlns:rdf="http://www.w3.org/1999/02/22-rdf-syntax-ns#"
   xmlns:svg="http://www.w3.org/2000/svg"
   xmlns="http://www.w3.org/2000/svg"
   xmlns:xlink="http://www.w3.org/1999/xlink"
   xmlns:sodipodi="http://sodipodi.sourceforge.net/DTD/sodipodi-0.dtd"
   xmlns:inkscape="http://www.inkscape.org/namespaces/inkscape"
   width="756.02655"
   height="756.02655"
   id="svg4507"
   version="1.1"
   inkscape:version="0.92.3 (2405546, 2018-03-11)"
   sodipodi:docname="expsetup.svg"
   inkscape:export-filename="/golem/svoboda/Dirigent/Diagnostics/LimiterMirnovCoils/setup.png"
   inkscape:export-xdpi="15.842811"
   inkscape:export-ydpi="15.842811"
   viewBox="0 0 708.77489 708.77487">
  <defs
     id="defs4509">
    <linearGradient
       inkscape:collect="always"
       id="linearGradient9141">
      <stop
         style="stop-color:#ff0000;stop-opacity:1;"
         offset="0"
         id="stop9143" />
      <stop
         style="stop-color:#ff0000;stop-opacity:0;"
         offset="1"
         id="stop9145" />
    </linearGradient>
    <marker
       inkscape:stockid="Arrow1Mstart"
       orient="auto"
       refY="0"
       refX="0"
       id="Arrow1Mstart"
       style="overflow:visible">
      <path
         id="path3949"
         d="M 0,0 5,-5 -12.5,0 5,5 Z"
         style="fill-rule:evenodd;stroke:#000000;stroke-width:1.00000003pt"
         transform="matrix(0.4,0,0,0.4,4,0)"
         inkscape:connector-curvature="0" />
    </marker>
    <marker
       inkscape:stockid="Arrow1Send"
       orient="auto"
       refY="0"
       refX="0"
       id="Arrow1Send"
       style="overflow:visible">
      <path
         id="path3958"
         d="M 0,0 5,-5 -12.5,0 5,5 Z"
         style="fill-rule:evenodd;stroke:#000000;stroke-width:1.00000003pt"
         transform="matrix(-0.2,0,0,-0.2,-1.2,0)"
         inkscape:connector-curvature="0" />
    </marker>
    <marker
       inkscape:stockid="Arrow1Mend"
       orient="auto"
       refY="0"
       refX="0"
       id="Arrow1Mend"
       style="overflow:visible">
      <path
         id="path3952"
         d="M 0,0 5,-5 -12.5,0 5,5 Z"
         style="fill-rule:evenodd;stroke:#000000;stroke-width:1.00000003pt"
         transform="matrix(-0.4,0,0,-0.4,-4,0)"
         inkscape:connector-curvature="0" />
    </marker>
    <marker
       inkscape:stockid="Arrow2Mend"
       orient="auto"
       refY="0"
       refX="0"
       id="Arrow2Mend"
       style="overflow:visible">
      <path
         id="path3970"
         style="fill-rule:evenodd;stroke-width:0.625;stroke-linejoin:round"
         d="M 8.7185878,4.0337352 -2.2072895,0.01601326 8.7185884,-4.0017078 c -1.7454984,2.3720609 -1.7354408,5.6174519 -6e-7,8.035443 z"
         transform="scale(-0.6)"
         inkscape:connector-curvature="0" />
    </marker>
    <marker
       inkscape:stockid="Arrow1Lend"
       orient="auto"
       refY="0"
       refX="0"
       id="Arrow1Lend"
       style="overflow:visible">
      <path
         id="path3946"
         d="M 0,0 5,-5 -12.5,0 5,5 Z"
         style="fill-rule:evenodd;stroke:#000000;stroke-width:1.00000003pt"
         transform="matrix(-0.8,0,0,-0.8,-10,0)"
         inkscape:connector-curvature="0" />
    </marker>
    <linearGradient
       inkscape:collect="always"
       id="linearGradient3790">
      <stop
         style="stop-color:#ff0000;stop-opacity:1;"
         offset="0"
         id="stop3792" />
      <stop
         style="stop-color:#ff0000;stop-opacity:0;"
         offset="1"
         id="stop3794" />
    </linearGradient>
    <radialGradient
       inkscape:collect="always"
       xlink:href="#linearGradient3790"
       id="radialGradient3796"
       cx="309.10669"
       cy="487.68692"
       fx="309.10669"
       fy="487.68692"
       r="115.17954"
       gradientUnits="userSpaceOnUse" />
    <radialGradient
       inkscape:collect="always"
       xlink:href="#linearGradient3790"
       id="radialGradient9017"
       gradientUnits="userSpaceOnUse"
       cx="309.10669"
       cy="487.68692"
       fx="309.10669"
       fy="487.68692"
       r="115.17954"
       gradientTransform="translate(-220.16185,269.0694)" />
    <radialGradient
       inkscape:collect="always"
       xlink:href="#linearGradient9141"
       id="radialGradient9147"
       cx="309.10669"
       cy="487.68692"
       fx="309.10669"
       fy="487.68692"
       r="116.14631"
       gradientUnits="userSpaceOnUse" />
  </defs>
  <sodipodi:namedview
     id="base"
     pagecolor="#ffffff"
     bordercolor="#666666"
     borderopacity="1.0"
     inkscape:pageopacity="0.0"
     inkscape:pageshadow="2"
     inkscape:zoom="0.86401435"
     inkscape:cx="-38.43838"
     inkscape:cy="301.23792"
     inkscape:document-units="mm"
     inkscape:current-layer="layer1"
     showgrid="false"
     inkscape:window-width="1920"
     inkscape:window-height="995"
     inkscape:window-x="0"
     inkscape:window-y="0"
     inkscape:window-maximized="1"
     showguides="true"
     inkscape:guide-bbox="true"
     units="mm"
     fit-margin-top="0"
     fit-margin-left="0"
     fit-margin-right="0"
     fit-margin-bottom="0" />
  <metadata
     id="metadata4512">
    <rdf:RDF>
      <cc:Work
         rdf:about="">
        <dc:format>image/svg+xml</dc:format>
        <dc:type
           rdf:resource="http://purl.org/dc/dcmitype/StillImage" />
        <dc:title />
      </cc:Work>
    </rdf:RDF>
  </metadata>
  <g
     inkscape:label="Layer 1"
     inkscape:groupmode="layer"
     id="layer1"
     transform="translate(356.02108,-697.68827)">
    <circle
       transform="matrix(2.5859471,0,0,2.5859471,-800.96722,-209.05688)"
       id="path9131"
       style="fill:url(#radialGradient9147);fill-opacity:1;stroke:#000000;stroke-width:0.15209402;stroke-miterlimit:4;stroke-dasharray:none;stroke-opacity:1"
       cx="309.10669"
       cy="487.68692"
       r="115.17954" />
    <circle
       transform="matrix(2.5833146,0,0,2.5931784,-800.15352,-213.71965)"
       id="path3788"
       style="fill:url(#radialGradient9017);fill-opacity:1;stroke:none"
       cx="309.10669"
       cy="487.68692"
       r="115.17954" />
    <text
       xml:space="preserve"
       style="font-style:normal;font-weight:normal;line-height:0%;font-family:sans-serif;letter-spacing:0px;word-spacing:0px;fill:#000000;fill-opacity:1;stroke:none"
       x="-280.97061"
       y="1039.6281"
       id="text6305"><tspan
         sodipodi:role="line"
         id="tspan6307"
         x="-280.97061"
         y="1039.6281"
         style="font-size:32px;line-height:1.25;font-family:sans-serif">HFS</tspan></text>
    <text
       id="text6309"
       y="1041.4159"
       x="227.59439"
       style="font-style:normal;font-weight:normal;line-height:0%;font-family:sans-serif;letter-spacing:0px;word-spacing:0px;fill:#000000;fill-opacity:1;stroke:none"
       xml:space="preserve"><tspan
         y="1041.4159"
         x="227.59439"
         id="tspan6311"
         sodipodi:role="line"
         style="font-size:32px;line-height:1.25;font-family:sans-serif">LFS</tspan></text>
    <circle
       style="fill:none;stroke:#000000;stroke-width:1.63686037;stroke-miterlimit:4;stroke-dasharray:none;stroke-opacity:1"
       id="path4528"
       transform="matrix(1.4523101,-2.6872943,2.6872943,1.4523101,-1761.1107,1174.4637)"
       cx="309.10669"
       cy="487.68692"
       r="115.17954" />
    <text
       xml:space="preserve"
       style="font-style:normal;font-weight:normal;font-size:32px;line-height:0%;font-family:sans-serif;letter-spacing:0px;word-spacing:0px;fill:#000000;fill-opacity:1;stroke:none"
       id="text9170"
       transform="translate(3.52737,-7.05474)"><textPath
         xlink:href="#path4528"
         id="textPath9199"
         style="font-family:sans-serif"><tspan
   id="tspan9172"
   style="font-family:sans-serif">chamber</tspan></textPath></text>
    <text
       id="text9202"
       style="font-style:normal;font-weight:normal;font-size:32px;line-height:0%;font-family:sans-serif;letter-spacing:0px;word-spacing:0px;fill:#000000;fill-opacity:1;stroke:none"
       xml:space="preserve"
       transform="translate(-70.401767,53.447358)"><textPath
         id="textPath9204"
         xlink:href="#path4528"
         style="font-family:sans-serif">plasma radius</textPath></text>
    <path
       style="display:inline;fill:none;stroke:#000000;stroke-width:0.9439044px;stroke-linecap:butt;stroke-linejoin:miter;stroke-opacity:1"
       d="m -62.348184,728.72202 h 24.437637 c 1.818878,-14.9199 17.36531,-16.1037 17.36531,3.4927 0,10.7526 -7.042372,10.76 -7.042372,-0.1445 0,-19.4519 17.349719,-19.5111 17.349719,-0.098 0,11.0104 -6.960555,11.0696 -6.960555,0.2034 0,-19.5568 17.33030667,-19.616 17.33030667,-0.1081 0,10.9151 -6.99410907,10.9757 -6.99410907,0.035 0,-19.4831 17.6936204,-19.4831 17.6936204,0.072 0,10.8683 -6.9943017,10.8683 -6.9943017,-0.084 0,-19.471 14.9971227,-18.2872 16.8607767,-3.0113 l 28.365862,-0.021"
       id="path4550-3"
       inkscape:connector-curvature="0"
       sodipodi:nodetypes="ccsssssssscc" />
    <path
       sodipodi:nodetypes="ccsssssssscc"
       inkscape:connector-curvature="0"
       id="path3854"
       d="m -319.58387,1096.2789 v -24.1071 c -15.12444,-1.7943 -16.32447,-17.1305 3.54059,-17.1305 10.90001,0 10.90751,6.9472 -0.14648,6.9472 -19.71858,0 -19.77859,-17.1151 -0.0994,-17.1151 11.16135,0 11.22136,6.8664 0.20619,6.8664 -19.82491,0 -19.88492,-17.0959 -0.10958,-17.0959 11.06474,0 11.12617,6.8995 0.0355,6.8995 -19.7502,0 -19.7502,-17.4543 0.073,-17.4543 11.0173,0 11.0173,6.8997 -0.0852,6.8997 -19.73793,0 -18.5379,-14.7943 -3.05258,-16.6328 l -0.0213,-27.9822"
       style="display:inline;fill:none;stroke:#000000;stroke-width:0.9439044px;stroke-linecap:butt;stroke-linejoin:miter;stroke-opacity:1" />
    <path
       sodipodi:nodetypes="ccsssssssscc"
       inkscape:connector-curvature="0"
       id="path3876"
       d="m 56.533803,1369.5673 h -24.27238 c -1.806579,15.3467 -17.24788,16.5644 -17.24788,-3.5926 0,-11.0602 6.994749,-11.0678 6.994749,0.1486 0,20.0084 -17.2323937,20.0693 -17.2323937,0.1008 0,-11.3253 6.9134847,-11.3862 6.9134847,-0.2092 0,20.1163 -17.213112,20.1772 -17.213112,0.1112 0,-11.2273 6.9468122,-11.2897 6.9468122,-0.036 0,20.0405 -17.5739692,20.0405 -17.5739692,-0.074 0,-11.1792 6.9470035,-11.1792 6.9470035,0.086 0,20.028 -14.8957055,18.8103 -16.7467575,3.0974 l -28.174041,0.022"
       style="display:inline;fill:none;stroke:#000000;stroke-width:0.95406783px;stroke-linecap:butt;stroke-linejoin:miter;stroke-opacity:1" />
    <path
       style="display:inline;fill:none;stroke:#000000;stroke-width:0.95406783px;stroke-linecap:butt;stroke-linejoin:miter;stroke-opacity:1"
       d="m 312.03003,991.49584 v 24.79676 c 15.02216,1.8456 16.21408,17.6205 -3.51664,17.6205 -10.82631,0 -10.83376,-7.1459 0.14549,-7.1459 19.58523,0 19.64483,17.6047 0.0987,17.6047 -11.08587,0 -11.14548,-7.0628 -0.20479,-7.0628 19.69085,0 19.75045,17.585 0.10884,17.585 -10.98992,0 -11.05094,-7.0969 -0.0352,-7.0969 19.61664,0 19.61664,17.9536 -0.0725,17.9536 -10.94279,0 -10.94279,-7.0971 0.0846,-7.0971 19.60446,0 18.41255,15.2175 3.03194,17.1086 l 0.0211,28.7827"
       id="path3886"
       inkscape:connector-curvature="0"
       sodipodi:nodetypes="ccsssssssscc" />
  </g>
</svg>
